0
300
   0       0      0      14.2    46.4    0  209    0      44.7    40.9   31  240
   1       1      0      57.5    44.0    1  378    0      14.6    46.8   44  421
   2       3      0      19.6    25.8    3   52    0      17.0    16.1   14   63
   3       5      0      46.7    57.7    5  202    0       8.9    38.9   48  245
   4       7      0      12.8    47.4    7  209    0      25.7    11.9   45  247
   5       9      0      49.8     6.4    9  200    0      34.5    52.5   58  249
   6      10      0      10.2    59.5   10  380    0      50.2    29.5   60  430
   7      12      0       1.0    58.3   12  320    0       4.9     7.4   64  372
   8      14      0      21.1    51.5   14  211    0      35.3    11.3   57  254
   9      16      0       7.8    26.0   16   54    0     -11.8    17.4   38   76
  10      18      0      25.6     9.8   18  423    0      33.6    21.7   33  438
  11      19      0      49.6    32.8   19  360    0      52.0    51.0   38  379
  12      21      0       8.3     0.7   21  211    0      56.8     9.8   71  261
  13      23      0      20.3     8.6   23  340    0      42.1    45.0   66  383
  14      25      0      55.6    48.2   25  356    0      34.7    28.3   54  385
  15      27      0       8.0    42.7   27   76    0      13.4    51.6   38   87
  16      28      0      40.6    43.4   28  361    0      15.7    52.9   55  388
  17      30      0      12.2    21.7   30   63    0       9.9    -4.5   57   90
  18      32      0      37.7    53.9   32  368    0      33.5    30.7   56  392
  19      34      0      14.2     0.8   34  346    0      43.6    37.9   82  394
  20      36      0      31.7    57.7   36  346    0      49.7    11.3   86  396
  21      37      0       2.0    44.5   37  357    0      41.2    38.8   77  397
  22      39      0      55.9    12.5   39  452    0      56.9    19.3   46  459
  23      41      0      14.0    20.4   41  445    0      16.5     5.2   57  461
  24      43      0       0.9    21.4   43  411    0      51.6    12.5   95  463
  25      45      0      56.6     0.4   45  407    0       1.2    15.5  103  465
  26      46      0       2.5    16.7   46  364    0      17.3    56.0   88  406
  27      48      0      46.7    37.5   48  460    0      53.5    33.4   56  468
  28      50      0      13.0    20.2   50  394    0      12.9    35.4   66  410
  29      52      0       2.0    33.7   52  393    0      15.1    46.2   71  412
  30      54      0      13.3    36.6   54  281    0       4.5    27.7   67  294
  31      55      0      27.2    20.1   55   88    0      53.7    15.8   82  115
  32      57      0      43.4    53.4   57  408    0      39.3    45.6   66  417
  33      59      0       3.9    28.4   59  265    0      19.0    58.6   93  299
  34      61      0      21.5    44.2   61  375    0      47.7     6.8  107  421
  35      63      0       7.6    44.9   63  451    0      20.4    15.9   95  483
  36      64      0      30.0    35.9   64  405    0      46.0    45.0   83  424
  37      66      0       5.4    10.4   66  406    0      17.7    25.5   86  426
  38      68      0      48.6    12.6   68  445    0      16.1    40.1  111  488
  39      70      0      38.8    17.7   70  293    0      49.8     5.6   87  310
  40      72      0      40.0    46.5   72  479    0      46.5    56.6   85  492
  41      73      0      44.7     2.8   73  269    0      21.5    39.2  117  313
  42      75      0      48.3    47.4   75  381    0       3.3    18.4  129  435
  43      77      0      48.6     1.9   77  278    0      53.9    39.9  116  317
  44      79      0      11.6    33.5   79  390    0      53.5    57.0  128  439
  45      81      0      32.6    45.3   81  483    0      45.4    57.0   99  501
  46      82      0      33.1    55.6   82  419    0      51.9    43.0  105  442
  47      84      0      15.0    23.6   84  399    0      57.9    13.3  129  444
  48      86      0      10.7    39.5   86  414    0      36.0    58.9  118  446
  49      88      0      14.4    17.2   88  421    0      15.9    43.7  115  448
  50      90      0      31.7    13.9   90  311    0      50.2    15.7  109  330
  51      91      0      19.4    14.2   91  410    0      57.9    25.9  132  451
  52      93      0      22.2    51.8   93  461    0      12.9     1.2  145  513
  53      95      0       3.6    10.5   95  425    0      17.3    36.7  125  455
  54      97      0      23.1     3.7   97  319    0      36.0    15.9  115  337
  55      99      0      20.6    24.2   99  493    0      20.6    49.4  125  519
  56     100      0      48.4    16.9  100  298    0      36.0    56.8  142  340
  57     102      0      38.5    23.8  102  321    0      22.7    37.5  123  342
  58     104      0      30.0    50.8  104  480    0      24.6     7.4  148  524
  59     106      0      41.1    17.2  106  306    0       2.0    23.7  146  346
  60     108      0      42.8    29.1  108  313    0       8.0    31.5  143  348
  61     109      0       8.4    10.2  109  326    0      30.6    10.4  132  349
  62     111      0      31.2     2.1  111  327    0      54.5     4.6  135  351
  63     113      0      23.2    19.7  113  459    0      24.7    32.8  127  473
  64     115      0      18.6    24.2  115  313    0      52.8    47.0  157  355
  65     117      0      47.5    22.1  117  343    0      51.5     8.8  131  357
  66     118      0       8.5    45.7  118  438    0      47.3    53.7  158  478
  67     120      0      52.6     0.1  120  447    0      59.8    32.3  153  480
  68     122      0      48.9    49.7  122  460    0      28.2    56.9  144  482
  69     124      0      36.0    12.1  124  518    0      11.1     4.7  150  544
  70     126      0      56.7    30.1  126  502    0      14.9    41.1  170  546
  71     127      0      22.4    33.2  127  217    0      46.7    16.5  157  247
  72     129      0      42.2    52.1  129  517    0      20.2    29.2  161  549
  73     131      0      32.2    37.1  131  338    0      11.0    12.7  164  371
  74     133      0      25.1    58.0  133  327    0       3.8    17.3  179  373
  75     135      0      16.8    44.3  135  464    0      44.8    32.2  166  495
  76     136      0      13.3    33.2  136  515    0      49.7    15.4  177  556
  77     138      0      47.2    13.3  138  468    0      18.5    17.8  168  498
  78     140      0       5.6    28.0  140  496    0       8.8    26.9  144  500
  79     142      0      40.0    48.9  142  465    0       3.2    45.9  179  502
  80     144      0      18.8     1.0  144  505    0      10.7    58.8  203  564
  81     145      0       7.6    29.3  145  466    0      38.9     7.4  184  505
  82     147      0      22.8    46.5  147  340    0      37.5     2.9  194  387
  83     149      0      31.4    19.6  149  370    0      43.8     5.3  168  389
  84     151      0      16.7    26.2  151  496    0      30.4    30.8  166  511
  85     153      0      27.0    49.5  153  470    0      23.4     7.2  196  513
  86     154      0      49.2    19.7  154  567    0      51.6    13.4  161  574
  87     156      0       0.7    32.4  156  359    0      37.5    33.5  193  396
  88     158      0      59.9    53.3  158  486    0      46.2    25.2  190  518
  89     160      0      51.7    14.7  160  533    0      18.4    47.5  207  580
  90     162      0      23.5    13.0  162  572    0      19.0     5.0  172  582
  91     163      0      22.4     0.5  163  370    0      26.8    33.0  196  403
  92     165      0       4.3    51.1  165  377    0       6.0    23.7  193  405
  93     167      0      28.9    32.8  167  522    0      27.0    28.6  172  527
  94     169      0       0.5    58.2  169  516    0      51.2     6.3  242  589
  95     171      0      31.5    21.2  171  566    0      25.6    45.4  196  591
  96     172      0      56.9    56.1  172  478    0       3.8    58.7  226  532
  97     174      0      18.1    24.8  174  492    0      57.9    35.0  216  534
  98     176      0      32.0    40.8  176  569    0      50.8    59.3  203  596
  99     178      0      34.2    16.9  178  503    0       4.9    35.0  213  538
 100     180      0       2.0    42.1  180  411    0       7.7    48.1  189  420
 101     181      0      12.9    26.3  181  237    0      12.1    23.4  185  241
 102     183      0      46.6    12.1  183  501    0       6.3    22.1  225  543
 103     185      0      38.0    34.8  185  513    0       7.9    43.6  217  545
 104     187      0      55.7    16.5  187  397    0      58.3    46.2  217  427
 105     189      0      45.3    50.7  189  426    0      44.0    49.0  192  429
 106     190      0      58.3    53.5  190  512    0      20.8    55.6  228  550
 107     192      0      27.7     0.3  192  506    0      27.1    46.0  238  552
 108     194      0      53.2    53.4  194  410    0      46.7    30.4  218  434
 109     196      0      29.1    38.5  196  537    0      46.1    31.5  215  556
 110     198      0      47.2    10.2  198  399    0      20.1    37.2  237  438
 111     199      0       1.6     0.5  199  532    0       4.9    26.8  226  559
 112     201      0      57.9    42.7  201  518    0      17.1    53.9  244  561
 113     203      0      16.6    15.9  203  249    0       3.8    10.5  217  263
 114     205      0      11.2    37.0  205  418    0      34.5    48.6  232  445
 115     207      0      33.7     5.2  207  544    0      19.5    22.9  230  567
 116     208      0      37.2    44.4  208  558    0      41.2    52.8  218  568
 117     210      0       2.7    42.3  210  535    0      24.3    15.4  245  570
 118     212      0      39.9    43.3  212  556    0      38.5    58.3  228  572
 119     214      0      41.6    29.3  214  564    0      32.1    27.6  224  574
 120     216      0       3.5    24.3  216  398    0      59.7    37.4  274  456
 121     217      0      34.3    29.8  217  568    0      28.3    35.9  226  577
 122     219      0      16.6    24.3  219  451    0      18.8    31.3  227  459
 123     221      0      36.4     4.8  221  452    0      31.6    11.8  230  461
 124     223      0      42.3     1.7  223  568    0      43.1    16.1  238  583
 125     225      0      15.3    17.4  225  265    0       0.7     4.5  245  285
 126     226      0      15.5    40.5  226  546    0      53.9    48.7  266  586
 127     228      0      16.1    25.5  228  555    0       4.6    55.5  261  588
 128     230      0      10.5    32.2  230  432    0      46.8    42.8  268  470
 129     232      0      31.9    22.7  232  559    0       2.4    36.2  265  592
 130     234      0      10.0    58.6  234  417    0      16.1     2.7  291  474
 131     235      0       6.1    10.5  235  580    0      20.8     8.9  250  595
 132     237      0      38.7     3.0  237  452    0      55.7    21.0  262  477
 133     239      0      14.5     1.8  239  570    0      39.7    14.5  268  599
 134     241      0       6.3    41.1  241  444    0      25.4     9.9  278  481
 135     243      0      18.2     5.5  243  311    0      58.0    37.5  295  363
 136     244      0       9.1     6.2  244  336    0       9.5    33.6  272  364
 137     246      0      23.5    54.1  246  332    0      53.8    40.4  280  366
 138     248      0       8.7    57.1  248  343    0      21.6    36.3  273  368
 139     250      0      21.3    18.4  250  341    0      20.5    47.1  279  370
 140     252      0      55.2    11.2  252  446    0      28.7    47.8  298  492
 141     253      0      54.1    35.2  253  473    0      41.5    50.2  273  493
 142     255      0      22.8    24.1  255  350    0      13.9    47.2  280  375
 143     257      0      50.8    32.4  257  483    0      47.3    45.6  271  497
 144     259      0       4.6    33.0  259  486    0       5.9    20.2  272  499
 145     261      0      40.1    51.2  261  371    0      36.3    59.7  271  381
 146     262      0      41.0    47.9  262  455    0      21.6     5.6  309  502
 147     264      0      47.0    54.4  264  485    0      52.0    36.5  283  504
 148     266      0      53.5    53.2  266  456    0      58.5     3.5  316  506
 149     268      0      54.1    16.9  268  466    0      16.2     0.6  310  508
 150     270      0      21.0    57.6  270  494    0      35.2    52.2  286  510
 151     271      0      58.5    59.3  271  447    0       3.8    27.8  335  511
 152     273      0      19.9    24.6  273  350    0      59.0     7.0  316  393
 153     275      0      40.7    25.4  275  500    0      54.3    30.7  290  515
 154     277      0      36.9     3.4  277  482    0      37.7    38.3  312  517
 155     279      0      48.3    15.6  279  489    0      58.0    43.9  309  519
 156     280      0      22.4    35.3  280  503    0      31.7    21.6  297  520
 157     282      0      13.4    22.4  282  471    0      55.1    50.3  333  522
 158     284      0      23.3    11.0  284  517    0      23.8     4.5  291  524
 159     286      0      51.0    48.7  286  486    0      12.1    52.0  326  526
 160     288      0      52.6    40.3  288  392    0      50.7    55.2  304  408
 161     289      0       6.6     6.3  289  503    0      31.8     1.9  315  529
 162     291      0       7.9    18.1  291  520    0       7.8    28.1  302  531
 163     293      0      14.7    45.1  293  519    0      22.3    55.8  307  533
 164     295      0      49.5    57.4  295  506    0      54.4    29.0  324  535
 165     297      0       7.4    38.7  297  492    0      43.5    13.5  342  537
 166     298      0      27.7    17.5  298  511    0      50.4    31.8  325  538
 167     300      0      35.2    46.1  300  394    0      10.0    48.5  326  420
 168     302      0      21.9    22.0  302  405    0      36.3    13.4  319  422
 169     304      0      59.6    56.8  304  503    0      31.6    28.0  345  544
 170     306      0      56.8    48.5  306  522    0      45.7    27.6  330  546
 171     307      0      31.3     9.4  307  498    0      35.8    57.6  356  547
 172     309      0      23.5    34.0  309  390    0      53.1     9.7  348  429
 173     311      0      36.4    18.1  311  420    0      45.6    23.8  322  431
 174     313      0      31.7     8.1  313  545    0      24.0     6.1  321  553
 175     315      0      46.1    59.7  315  507    0       4.9    35.9  363  555
 176     316      0      24.5    20.0  316  419    0      32.1     5.3  333  436
 177     318      0      34.1    17.1  318  403    0       0.0    12.7  353  438
 178     320      0      14.6    59.5  320  548    0      23.1    51.6  332  560
 179     322      0      33.1    16.1  322  430    0      40.1    24.9  334  442
 180     324      0      58.3    15.4  324  527    0      38.7    46.5  361  564
 181     325      0       9.7    29.2  325  535    0      23.8     3.0  355  565
 182     327      0       7.9    31.8  327  421    0      26.6    49.8  353  447
 183     329      0      49.8    29.2  329  535    0      16.1    24.8  363  569
 184     331      0      20.2    14.9  331  559    0       9.7    18.9  343  571
 185     333      0      53.0    45.5  333  527    0      19.9    14.5  379  573
 186     334      0      48.9    21.7  334  444    0      47.7    12.4  344  454
 187     336      0      43.0    43.6  336  542    0      10.3    50.9  370  576
 188     338      0      50.0    27.1  338  544    0      30.7    55.0  372  578
 189     340      0      41.8    17.9  340  544    0      46.5    53.0  376  580
 190     342      0      45.7    32.7  342  454    0      41.9    39.4  350  462
 191     343      0      45.0     4.1  343  567    0      30.0     6.1  359  583
 192     345      0       5.7    21.7  345  530    0      59.9    21.9  400  585
 193     347      0       5.2    38.1  347  452    0      13.7    49.6  362  467
 194     349      0       6.0    53.4  349  459    0       6.7    43.9  359  469
 195     351      0      27.3    10.9  351  462    0      28.2     2.1  360  471
 196     352      0      30.3    57.1  352  453    0      36.3    39.2  371  472
 197     354      0      46.6    31.3  354  470    0      50.0    30.0  358  474
 198     356      0      47.1    47.2  356  563    0      15.2    52.4  389  596
 199     358      0      45.5     4.3  358  449    0      30.0    28.2  387  478
 200     360      0       7.6    32.4  360  428    0      47.7     0.0  412  480
 201     361      0      43.3    47.5  361  446    0      10.2    55.6  396  481
 202     363      0       0.2     4.0  363  437    0      20.4    44.8  409  483
 203     365      0      20.4     7.8  365  457    0      17.3    35.4  393  485
 204     367      0      55.6    59.1  367  436    0      11.2    35.0  418  487
 205     369      0      35.5    28.8  369  402    0      37.4    54.9  396  429
 206     370      0      58.3     3.5  370  439    0      55.5    53.9  421  490
 207     372      0       2.4    14.1  372  438    0      55.6    19.6  426  492
 208     374      0      20.8    33.7  374  476    0      15.1    49.8  392  494
 209     376      0      31.2    52.1  376  468    0       5.5    41.5  404  496
 210     378      0      42.9     3.1  378  439    0       5.0    47.8  437  498
 211     379      0      41.6     2.4  379  472    0      59.9    21.0  406  499
 212     381      0      17.8    20.2  381  438    0      16.7    17.5  384  441
 213     383      0      36.7    32.1  383  479    0      23.9    51.5  407  503
 214     385      0      36.1    45.1  385  470    0      19.8    14.9  420  505
 215     387      0      28.9    23.6  387  492    0      23.4    37.4  402  507
 216     388      0      19.2    24.2  388  423    0      13.9    -0.2  413  448
 217     390      0      18.2    22.1  390  434    0      17.1     6.6  406  450
 218     392      0      10.5    24.1  392  424    0      37.5    27.1  420  452
 219     394      0      14.2    57.6  394  469    0      33.8    18.1  439  514
 220     396      0       7.1     0.1  396  457    0       2.2    58.8  455  516
 221     397      0      19.9    32.9  397  433    0      10.8    11.2  421  457
 222     399      0      35.0    29.8  399  501    0      36.8    47.0  417  519
 223     401      0      26.6     2.9  401  445    0      11.3     1.1  417  461
 224     403      0      41.5    42.1  403  446    0      28.8    31.4  420  463
 225     405      0      19.2    30.5  405  508    0      23.4    46.0  422  525
 226     406      0      15.7    35.1  406  512    0      27.8    29.2  420  526
 227     408      0      59.2    43.4  408  474    0       6.0    46.0  462  528
 228     410      0      53.7    27.0  410  507    0      31.5    31.4  433  530
 229     412      0      16.7    15.5  412  448    0      13.1    -7.3  436  472
 230     414      0      30.6    21.1  414  507    0       5.2    26.7  441  534
 231     415      0       3.1    40.5  415  488    0      32.4     4.0  462  535
 232     417      0      29.0    16.9  417  517    0      37.9    34.2  437  537
 233     419      0      31.9    47.6  419  528    0      25.1    56.0  430  539
 234     421      0      26.9    34.3  421  510    0      54.4    21.5  452  541
 235     423      0      38.7     6.7  423  510    0      56.7    33.9  456  543
 236     424      0      57.2    44.5  424  516    0      30.1    38.4  452  544
 237     426      0      15.6    28.0  426  476    0      15.6    18.6  436  486
 238     428      0      49.0    56.7  428  496    0      57.4     5.6  480  548
 239     430      0      16.4    29.5  430  478    0      15.0    17.8  442  490
 240     432      0      24.7    42.2  432  523    0      50.2    30.4  461  552
 241     433      0       7.3    24.7  433  499    0       5.1   -28.6  487  553
 242     435      0      33.8    54.8  435  496    0       6.3     2.9  494  555
 243     437      0      17.0    12.0  437  530    0      43.8    11.7  464  557
 244     439      0      32.5    39.1  439  490    0      38.5    33.4  448  499
 245     441      0       1.5     3.7  441  541    0       7.3    22.8  461  561
 246     442      0       8.9     1.6  442  495    0      49.6    54.8  509  562
 247     444      0      21.6    28.9  444  536    0       6.3     5.7  472  564
 248     446      0      15.9    22.9  446  501    0      -8.8   -36.5  511  566
 249     448      0      35.0     8.4  448  533    0      58.6    33.9  483  568
 250     450      0      43.2    49.8  450  521    0      57.6     3.9  499  570
 251     451      0      30.9    24.7  451  533    0       4.5    50.7  489  571
 252     453      0      29.5    10.2  453  523    0      45.8    56.9  503  573
 253     455      0      51.1    21.1  455  552    0      55.6    43.1  478  575
 254     457      0       8.0    43.8  457  573    0      11.0    45.3  461  577
 255     459      0      46.4    48.4  459  568    0      56.8    46.3  470  579
 256     460      0      15.8    17.6  460  499    0       4.7    34.5  481  520
 257     462      0      18.9    52.2  462  552    0      39.1    30.4  492  582
 258     464      0      32.1    21.0  464  553    0       4.3     7.7  495  584
 259     466      0      25.5     3.9  466  569    0      25.7    20.1  483  586
 260     468      0      19.6    25.1  468  508    0       2.9    14.7  488  528
 261     469      0      50.4     5.4  469  543    0       5.4     0.2  515  589
 262     471      0      33.0    54.7  471  574    0      34.5    37.8  488  591
 263     473      0      25.8     4.6  473  559    0      55.6    19.1  507  593
 264     475      0      46.4    42.7  475  563    0      18.8    27.3  507  595
 265     477      0       4.4    26.8  477  556    0      44.9    31.6  518  597
 266     478      0      30.6    22.8  478  566    0      32.8    54.5  510  598
 267     480      0      15.9    23.7  480  513    0       7.9    -1.5  507  540
 268     482      0      19.5    17.9  482  515    0      15.2    -7.9  509  542
 269     484      0      19.9    27.8  484  538    0      17.7    22.8  490  544
 270     486      0      19.2    26.2  486  523    0      15.4     4.5  509  546
 271     487      0      20.2    39.2  487  512    0      41.4    11.8  522  547
 272     489      0      11.0    20.1  489  525    0      -8.0     6.5  513  549
 273     491      0      15.0    21.4  491  521    0      -0.4    -3.7  521  551
 274     493      0      19.9    19.2  493  533    0      15.2     0.7  513  553
 275     495      0      21.7    28.0  495  527    0      23.3    55.4  523  555
 276     496      0       5.5    48.0  496  538    0      20.1    38.1  514  556
 277     498      0      18.8    24.7  498  540    0      12.6     8.0  516  558
 278     500      0      19.1    19.7  500  532    0      16.7    -7.3  528  560
 279     502      0       9.2    29.7  502  553    0      14.6    23.7  511  562
 280     504      0      37.5    43.3  504  550    0      25.3    48.1  518  564
 281     505      0      16.4    15.6  505  540    0      -7.4     9.5  530  565
 282     507      0       9.7    17.6  507  543    0       5.2    40.8  531  567
 283     509      0      16.6    21.2  509  541    0      10.1    -6.0  537  569
 284     511      0      18.4    16.3  511  549    0      17.5    -5.5  533  571
 285     513      0      55.0    28.0  513  566    0      49.6    31.1  520  573
 286     514      0      16.5    25.3  514  560    0       7.8    15.2  528  574
 287     516      0      17.6    19.9  516  555    0       2.2     7.1  537  576
 288     518      0      14.1    18.9  518  552    0       3.2    -3.8  544  578
 289     520      0      12.5    20.0  520  558    0       7.9    -1.2  542  580
 290     522      0      17.0    25.3  522  568    0      13.0    12.7  536  582
 291     523      0      19.1    29.8  523  553    0       1.2     6.1  553  583
 292     525      0      16.2    17.9  525  571    0       4.4    10.8  539  585
 293     527      0      19.1    22.1  527  575    0      18.9    10.3  539  587
 294     529      0      15.4    18.9  529  570    0      -1.6    12.9  548  589
 295     531      0      15.0    29.4  531  576    0      10.5    15.7  546  591
 296     532      0      20.0    24.7  532  581    0      15.4    15.2  543  592
 297     534      0      17.5    19.6  534  583    0      12.6    10.6  545  594
 298     536      0      18.9    27.9  536  570    0      14.2     2.9  562  596
 299     538      0      22.8    49.5  538  581    0       6.3    48.1  555  598
