0
300
   0       0      0      27.6    11.5    0  413    0      27.5    17.6    7  420
   1       1      0      38.3    38.5    1  388    0       6.8    44.5   34  421
   2       3      0      10.5     7.9    3  196    0       9.3    54.1   50  243
   3       5      0      31.4    51.2    5  214    0      43.3    23.1   36  245
   4       7      0      33.9    59.5    7  238    0      30.7    51.9   16  247
   5       9      0      49.9    39.1    9  204    0       6.4    31.9   54  249
   6      10      0      39.7    57.9   10  412    0      40.8    40.8   28  430
   7      12      0      14.0    26.2   12  338    0      43.7     9.9   46  372
   8      14      0      22.7    26.4   14  414    0      42.3    26.9   34  434
   9      16      0       6.5    40.3   16  397    0      13.8     2.9   55  436
  10      18      0      25.5    40.6   18  226    0      56.8    37.3   50  258
  11      19      0      10.9     6.3   19  201    0      59.6    36.9   77  259
  12      21      0      40.6    21.2   21  352    0      13.1    14.0   50  381
  13      23      0      39.4    52.2   23  248    0      24.6    53.2   38  263
  14      25      0       4.9    47.9   25  367    0      22.2    44.2   43  385
  15      27      0      23.0    22.9   27  418    0      51.4    23.9   56  447
  16      28      0      39.4    58.2   28  379    0      43.2    50.3   37  388
  17      30      0      20.5    34.0   30  122    0      17.6     6.7   58  150
  18      32      0      21.5    16.8   32  441    0      13.4    23.6   43  452
  19      34      0      58.7    43.6   34  384    0      55.1    34.8   44  394
  20      36      0      52.2    24.6   36  351    0       9.5    36.9   81  396
  21      37      0      50.2    11.0   37  238    0      13.7    23.8   76  277
  22      39      0      22.8    56.2   39  392    0      15.9    56.9   46  399
  23      41      0      59.0    58.8   41  358    0      49.3    17.7   84  401
  24      43      0      16.2    51.9   43  365    0      46.0    29.3   81  403
  25      45      0      18.3    17.3   45   83    0       4.7     1.1   67  105
  26      46      0       2.4     8.3   46  418    0      19.4    52.5   94  466
  27      48      0      55.0    31.4   48  276    0      53.9    42.4   60  288
  28      50      0       6.1    53.1   50  341    0      54.2     4.1  119  410
  29      52      0      50.9     7.8   52  381    0      27.3    26.5   83  412
  30      54      0       9.6    20.4   54  428    0      41.1    53.3  100  474
  31      55      0      35.0    39.4   55  269    0      38.1    14.1   81  295
  32      57      0      36.1     8.2   57  147    0      42.9    37.4   87  177
  33      59      0      12.1    47.3   59  270    0       9.7    19.1   88  299
  34      61      0      39.7     5.9   61  277    0      56.7    22.4   85  301
  35      63      0      10.6     9.2   63  372    0       2.9    59.3  114  423
  36      64      0      16.9    41.5   64  441    0      56.6    26.4  107  484
  37      66      0      32.0    57.1   66  391    0       2.4    40.3  101  426
  38      68      0      37.2     9.8   68  468    0      20.7    20.0   88  488
  39      70      0      38.7    20.1   70  405    0      50.4    41.8   95  430
  40      72      0       3.1    26.5   72  422    0       2.6    17.4   82  432
  41      73      0      55.3    52.2   73  382    0      25.9    10.7  124  433
  42      75      0      45.7     6.7   75  257    0      15.6    55.9  133  315
  43      77      0      36.4     7.8   77  459    0      22.3    42.3  115  497
  44      79      0      27.6    33.3   79  426    0      36.3    24.1   92  439
  45      81      0      46.4    37.6   81  308    0      41.9    25.8   94  321
  46      82      0      25.7    41.7   82  421    0       6.9    33.9  103  442
  47      84      0      45.6    33.4   84  281    0       3.3    37.3  127  324
  48      86      0      41.6    29.3   86  293    0      14.7    47.0  119  326
  49      88      0      16.1    28.9   88  478    0      42.4    41.5  118  508
  50      90      0      19.6    32.2   90  437    0       7.2    28.3  103  450
  51      91      0      37.5    50.6   91  442    0      29.5    48.0  100  451
  52      93      0      35.3     4.5   93  455    0      52.8    59.1  151  513
  53      95      0       7.9    55.8   95  417    0      23.5    21.5  133  455
  54      97      0       8.9     0.9   97  459    0       4.2    58.2  155  517
  55      99      0      20.5    39.9   99  304    0      51.9    25.0  134  339
  56     100      0       5.6    33.1  100  431    0      18.4    58.3  129  460
  57     102      0      48.8    41.8  102  418    0      11.4    20.4  146  462
  58     104      0      38.8    38.8  104  441    0      16.4    38.7  127  464
  59     106      0      42.6     6.6  106  453    0      55.2     5.3  119  466
  60     108      0      56.3    43.0  108  502    0      54.4    17.3  134  528
  61     109      0       5.3    27.5  109  436    0      38.2    26.1  142  469
  62     111      0      13.1    45.4  111  312    0      51.9    48.7  150  351
  63     113      0      12.0    25.7  113  321    0      19.8    55.9  145  353
  64     115      0       1.8    26.5  115  476    0      59.9    19.2  174  535
  65     117      0      36.0    44.4  117  430    0       3.6    10.5  164  477
  66     118      0      22.5    55.9  118  487    0      23.5     5.5  169  538
  67     120      0      23.1    31.7  120  520    0      20.4    51.5  140  540
  68     122      0      19.8    22.8  122  530    0      10.5    15.5  134  542
  69     124      0       2.6    49.8  124  448    0      11.2    15.6  160  484
  70     126      0      44.2    38.3  126  458    0      30.8    14.2  154  486
  71     127      0      10.6    29.3  127  526    0      22.2    46.1  148  547
  72     129      0      26.7     0.8  129  351    0      25.3    18.1  147  369
  73     131      0      30.0    58.6  131  542    0      21.4    57.8  140  551
  74     133      0      19.9    21.9  133  480    0      12.1    11.8  146  493
  75     135      0      12.4     2.2  135  491    0      43.0    57.9  199  555
  76     136      0      15.3    11.0  136  460    0      25.4    45.2  172  496
  77     138      0       0.1    23.1  138  360    0      16.9    18.0  156  378
  78     140      0       5.0    48.3  140  327    0      29.9     2.2  193  380
  79     142      0      59.0     5.1  142  451    0      31.3    47.2  193  502
  80     144      0      12.3    48.2  144  227    0      48.4    55.1  181  264
  81     145      0      26.9    45.2  145  499    0      30.8    49.0  151  505
  82     147      0      17.3    57.4  147  475    0      16.1    25.8  179  507
  83     149      0      42.9    53.9  149  374    0      57.5    56.3  164  389
  84     151      0      44.7    48.6  151  343    0      24.0     6.3  199  391
  85     153      0      54.1     8.3  153  471    0      12.8    11.1  195  513
  86     154      0      46.8    27.5  154  504    0      56.5    25.7  164  514
  87     156      0      17.6    24.9  156  533    0      59.8    29.8  199  576
  88     158      0      35.4    14.9  158  490    0      49.7    38.9  186  518
  89     160      0      40.7    58.7  160  488    0      29.7    29.5  192  520
  90     162      0      18.1     7.0  162  489    0      17.3    39.6  195  522
  91     163      0      29.9    34.0  163  554    0       6.9    51.4  192  583
  92     165      0       2.9     3.2  165  527    0      51.6    34.1  223  585
  93     167      0      49.8     0.5  167  547    0      17.8    24.0  207  587
  94     169      0      12.6    24.7  169  553    0      47.5    18.2  205  589
  95     171      0      23.4    10.3  171  573    0       5.8    10.7  189  591
  96     172      0      44.8    15.9  172  398    0      57.6    20.5  186  412
  97     174      0      18.5    34.5  174  566    0      40.6    50.7  202  594
  98     176      0      19.3    38.3  176  484    0      57.4     3.0  228  536
  99     178      0      47.8     7.5  178  511    0      22.1     1.3  205  538
 100     180      0      27.3    23.9  180  538    0      28.1    22.5  182  540
 101     181      0      38.1    37.2  181  401    0      32.2    55.8  201  421
 102     183      0       8.1    31.6  183  530    0      13.1    43.2  196  543
 103     185      0      54.5     8.3  185  368    0      23.4    55.7  242  425
 104     187      0      32.4     7.6  187  381    0      37.9    52.9  233  427
 105     189      0      53.4    13.9  189  423    0      55.3     8.4  195  429
 106     190      0       7.5    22.3  190  511    0      45.8    22.8  229  550
 107     192      0      21.0    16.9  192  526    0      17.2    42.2  218  552
 108     194      0      52.0    46.9  194  515    0      28.9    16.4  233  554
 109     196      0      38.3     8.8  196  402    0      31.9    42.0  230  436
 110     198      0       6.0    10.8  198  515    0      40.7    36.0  241  558
 111     199      0      29.3    52.5  199  422    0      14.0    58.6  216  439
 112     201      0      31.7    55.5  201  537    0      13.7    40.1  225  561
 113     203      0      47.6     4.0  203  545    0      31.3     9.5  221  563
 114     205      0      48.6    51.2  205  412    0      16.1    56.2  238  445
 115     207      0      21.9     6.2  207  540    0       5.9    27.8  234  567
 116     208      0      54.9    51.6  208  534    0      21.8    46.1  242  568
 117     210      0      27.7     0.6  210  515    0      25.9    54.7  265  570
 118     212      0      10.1    12.4  212  529    0      22.7    53.5  255  572
 119     214      0      23.1    51.8  214  443    0      32.0    57.9  225  454
 120     216      0       0.4     4.2  216  442    0      10.3    12.8  230  456
 121     217      0      32.4     6.1  217  550    0      55.4    19.0  244  577
 122     219      0      25.2    28.3  219  558    0      43.3    18.5  240  579
 123     221      0      50.0    57.1  221  571    0      56.9    50.2  231  581
 124     223      0      43.5    26.3  223  581    0      43.1    27.7  225  583
 125     225      0      12.2    26.6  225  538    0      58.5    34.3  272  585
 126     226      0      36.2    59.2  226  548    0       3.8    39.8  264  586
 127     228      0      19.7    40.5  228  419    0      49.3     2.3  277  468
 128     230      0      19.9    35.7  230  448    0      37.4    23.9  252  470
 129     232      0      26.1    43.0  232  444    0      25.2    15.9  260  472
 130     234      0      24.8    57.8  234  449    0       4.9    43.5  259  474
 131     235      0      35.0    21.0  235  283    0      23.6    23.6  247  295
 132     237      0      40.1    53.0  237  546    0      12.5    10.6  288  597
 133     239      0      26.4     9.7  239  428    0      56.7    49.6  290  479
 134     241      0      24.0    36.0  241  343    0      21.4    53.2  259  361
 135     243      0      11.9     0.0  243  306    0       2.7    55.7  300  363
 136     244      0      59.0    13.4  244  459    0      34.7    12.0  269  484
 137     246      0       7.5    26.7  246  350    0      14.5    40.0  262  366
 138     248      0       2.2    16.1  248  433    0      47.0    46.5  303  488
 139     250      0      46.1    41.5  250  472    0      38.3    25.6  268  490
 140     252      0      40.0    39.8  252  469    0      19.7    48.4  275  492
 141     253      0      48.0    42.2  253  473    0      33.1    55.1  273  493
 142     255      0      48.4    13.7  255  436    0       5.5    53.0  314  495
 143     257      0      17.5    37.3  257  351    0      39.3    24.3  283  377
 144     259      0       4.1    27.7  259  345    0      21.6    56.4  293  379
 145     261      0      56.2    46.7  261  337    0      41.7     5.7  305  381
 146     262      0      51.4     5.1  262  468    0      49.7    38.4  296  502
 147     264      0      41.4     3.4  264  449    0      12.2    49.7  319  504
 148     266      0      52.7    22.1  266  459    0      11.3     1.8  313  506
 149     268      0       6.0    10.5  268  338    0      34.7    50.9  318  388
 150     270      0      14.7    14.0  270  482    0      22.4    40.9  298  510
 151     271      0      16.4    39.4  271  473    0      53.2    44.5  309  511
 152     273      0      14.0    11.6  273  478    0      47.4    20.7  308  513
 153     275      0       7.4    52.2  275  478    0      18.9    18.0  312  515
 154     277      0      57.9    38.1  277  455    0       2.1    11.7  339  517
 155     279      0      10.5    32.2  279  377    0       4.4    53.1  301  399
 156     280      0      52.9    48.7  280  490    0      42.0    21.4  310  520
 157     282      0      16.8    26.1  282  380    0      19.0     4.7  304  402
 158     284      0      15.1    34.3  284  392    0      17.2    45.9  296  404
 159     286      0       3.2    39.7  286  489    0      18.6     6.2  323  526
 160     288      0      10.3    31.5  288  372    0      33.5    58.7  324  408
 161     289      0      21.5    16.3  289  517    0      10.1    14.8  301  529
 162     291      0      38.3    28.3  291  520    0      31.2    36.1  302  531
 163     293      0      52.5    48.8  293  480    0      30.6     1.2  346  533
 164     295      0      38.1     6.2  295  523    0      48.9     8.9  307  535
 165     297      0      37.4    59.8  297  528    0      36.5    51.4  306  537
 166     298      0      21.2    29.9  298  508    0      29.2    57.8  328  538
 167     300      0      12.2    24.8  300  504    0       2.6    58.5  336  540
 168     302      0      12.2    50.9  302  401    0      33.0    50.8  323  422
 169     304      0       6.4     6.5  304  491    0      45.7    40.6  357  544
 170     306      0      27.7    21.6  306  526    0      45.7    13.9  326  546
 171     307      0      13.5    55.9  307  413    0       3.7    46.3  321  427
 172     309      0      51.1    46.9  309  533    0      42.7    34.0  325  549
 173     311      0      59.8     7.9  311  402    0      31.9     0.1  340  431
 174     313      0       1.0    42.3  313  416    0       7.6    27.2  330  433
 175     315      0      40.3    28.8  315  517    0      13.5     3.2  353  555
 176     316      0      38.0    23.2  316  406    0       9.8    13.0  346  436
 177     318      0      44.7    20.0  318  524    0      13.0     7.9  352  558
 178     320      0      12.0    32.4  320  513    0      48.3     3.5  367  560
 179     322      0      55.8    28.6  322  534    0      28.1    30.5  350  562
 180     324      0      34.0    23.1  324  530    0       2.8    35.9  358  564
 181     325      0       6.6    59.8  325  511    0      32.2    12.6  379  565
 182     327      0       3.1    20.7  327  400    0      48.2     7.9  374  447
 183     329      0      50.9    52.5  329  407    0      37.2    13.6  371  449
 184     331      0      49.5    41.5  331  554    0      52.5    58.1  348  571
 185     333      0      31.0    57.4  333  552    0      37.9    38.5  354  573
 186     334      0      54.5    55.5  334  547    0      27.7    52.8  361  574
 187     336      0      12.1    37.1  336  558    0      29.2    38.9  354  576
 188     338      0       1.8     3.3  338  524    0      43.3    36.3  392  578
 189     340      0       1.5    45.6  340  428    0       6.1    14.2  372  460
 190     342      0       8.4    36.0  342  555    0      31.2    50.0  369  582
 191     343      0      19.2    24.0  343  570    0      27.6    33.1  356  583
 192     345      0      13.1    50.1  345  530    0      35.1     0.2  400  585
 193     347      0      42.4    24.0  347  575    0      49.9    32.4  359  587
 194     349      0       5.3     1.3  349  525    0      34.2    58.1  413  589
 195     351      0       8.5    42.9  351  544    0      51.0    25.1  398  591
 196     352      0      12.9     4.5  352  560    0      44.7     3.3  384  592
 197     354      0      23.8     0.8  354  559    0       9.6    32.3  389  594
 198     356      0      22.1    43.9  356  429    0      50.4     7.5  403  476
 199     358      0      48.4    31.0  358  466    0      53.8    21.2  370  478
 200     360      0      44.6    17.6  360  458    0      29.7    32.6  382  480
 201     361      0      39.0    20.6  361  401    0      53.9     7.6  381  421
 202     363      0      52.8    39.0  363  442    0      39.1     1.0  404  483
 203     365      0      57.5    27.0  365  478    0      51.4    24.7  372  485
 204     367      0      33.4    24.1  367  461    0       8.2    23.4  393  487
 205     369      0      12.4    59.5  369  424    0      54.7    10.5  434  489
 206     370      0      53.6    46.4  370  477    0      41.7    41.7  383  490
 207     372      0       8.1    47.7  372  460    0      39.5    52.2  404  492
 208     374      0      19.4    44.9  374  465    0      33.6    20.2  403  494
 209     376      0      15.7    16.5  376  424    0      11.2     6.4  388  436
 210     378      0      19.0    28.8  378  423    0       9.9    18.1  393  438
 211     379      0      16.2    18.8  379  462    0      48.8     3.2  416  499
 212     381      0      27.0    18.0  381  418    0      45.8     6.2  404  441
 213     383      0      20.2    58.2  383  441    0      42.8     1.0  445  503
 214     385      0      11.7    26.1  385  431    0       9.5    12.3  399  445
 215     387      0      30.8    38.1  387  474    0      32.0     6.0  420  507
 216     388      0      15.4    28.8  388  431    0      -1.1    28.5  405  448
 217     390      0      11.9    23.0  390  441    0      11.7    14.1  399  450
 218     392      0      15.6    25.5  392  483    0      43.9    23.7  421  512
 219     394      0      18.1    21.6  394  491    0       0.8     6.6  417  514
 220     396      0      55.3    56.3  396  486    0      34.7    35.4  426  516
 221     397      0      45.7    39.4  397  486    0      24.3    17.6  428  517
 222     399      0      49.7    29.7  399  491    0      32.8     7.9  427  519
 223     401      0      47.4     4.4  401  484    0      54.7    40.1  438  521
 224     403      0      42.1    38.1  403  500    0      54.6    56.3  426  523
 225     405      0      22.5    41.3  405  484    0      50.8    11.9  446  525
 226     406      0      12.4     1.8  406  494    0      41.0    14.4  438  526
 227     408      0      12.9    48.4  408  488    0      47.9    30.7  448  528
 228     410      0       4.5    19.8  410  491    0       3.6    58.3  449  530
 229     412      0      39.3     4.7  412  520    0      30.0    11.5  424  532
 230     414      0      40.5    37.5  414  523    0      30.9    32.3  425  534
 231     415      0      53.2    24.7  415  511    0      32.7    36.7  439  535
 232     417      0       4.6    39.1  417  500    0      34.4    17.9  454  537
 233     419      0      58.6    27.9  419  478    0       2.0    50.5  480  539
 234     421      0      11.4    22.4  421  467    0       0.6    14.0  435  481
 235     423      0      14.8     2.6  423  517    0      40.4     5.1  449  543
 236     424      0      17.6    23.2  424  475    0      10.8    18.3  433  484
 237     426      0      48.0    19.1  426  526    0      29.0    20.4  446  546
 238     428      0      59.4    28.4  428  503    0      24.5    55.4  473  548
 239     430      0      23.0    18.8  430  525    0      46.7    14.5  455  550
 240     432      0      30.3    52.5  432  522    0       0.7    52.3  462  552
 241     433      0      55.9    17.9  433  534    0      37.3    19.9  452  553
 242     435      0      20.0    20.9  435  479    0       4.3    18.9  451  495
 243     437      0      12.9    38.6  437  513    0      55.6    44.6  481  557
 244     439      0      39.4    30.5  439  525    0      17.4     5.0  473  559
 245     441      0      42.9    35.3  441  537    0      58.2    53.0  465  561
 246     442      0      24.5    23.4  442  528    0      18.6    56.7  476  562
 247     444      0       7.1     4.1  444  546    0      24.1     6.1  462  564
 248     446      0      12.0    10.6  446  514    0      48.7    47.4  498  566
 249     448      0      19.7    28.0  448  541    0       2.2    48.2  475  568
 250     450      0      21.6    20.0  450  536    0      47.0    41.6  484  570
 251     451      0      19.3    18.3  451  491    0       3.7     6.8  471  511
 252     453      0       2.6    34.1  453  511    0      54.6     0.8  515  573
 253     455      0      15.8    19.6  455  496    0       9.1     2.3  474  515
 254     457      0      12.8    21.7  457  500    0      10.0     5.3  474  517
 255     459      0      16.2    20.7  459  498    0       8.2     1.6  480  519
 256     460      0      32.0    29.3  460  555    0      10.3    18.5  485  580
 257     462      0      14.4    59.1  462  540    0       9.9    18.1  504  582
 258     464      0      48.7    28.0  464  560    0      31.6    12.2  488  584
 259     466      0      11.8    36.7  466  546    0      33.8     4.1  506  586
 260     468      0       9.5    36.4  468  541    0      48.6    11.2  515  588
 261     469      0      32.9    55.2  469  575    0      44.8    48.4  483  589
 262     471      0      51.1    42.5  471  550    0      13.7    27.7  512  591
 263     473      0      30.6    39.5  473  558    0      59.5    59.1  508  593
 264     475      0      41.3    25.2  475  570    0      16.5    23.2  500  595
 265     477      0      12.5    24.0  477  554    0      53.8    35.4  520  597
 266     478      0      54.0    54.3  478  570    0      27.1    48.3  506  598
 267     480      0      17.3    18.8  480  516    0      15.8    -5.1  504  540
 268     482      0      14.2    18.3  482  521    0       8.4    -0.9  503  542
 269     484      0      13.6    19.4  484  514    0      12.1   -10.0  514  544
 270     486      0      19.9    21.1  486  532    0       8.4    13.3  500  546
 271     487      0      19.4    15.2  487  535    0      18.5     4.0  499  547
 272     489      0      17.0    27.4  489  525    0       2.5     8.3  513  549
 273     491      0      19.2    50.6  491  541    0      11.0    45.8  501  551
 274     493      0      19.6    17.9  493  531    0      19.4    -3.2  515  553
 275     495      0      12.2    23.9  495  542    0       0.0    22.6  508  555
 276     496      0      18.4    16.5  496  543    0      18.0     3.8  509  556
 277     498      0      19.9    26.1  498  546    0      14.2    15.6  510  558
 278     500      0      18.8    15.8  500  555    0      14.5    13.8  505  560
 279     502      0      41.1    37.1  502  558    0      39.0    33.8  506  562
 280     504      0      17.0    19.5  504  547    0       1.6    15.1  521  564
 281     505      0      42.9    28.6  505  546    0      58.8    37.3  524  565
 282     507      0      20.0    28.1  507  549    0      18.9    10.9  525  567
 283     509      0      19.4    28.8  509  544    0       2.7    11.0  534  569
 284     511      0      22.8    42.0  511  550    0       2.1    41.9  532  571
 285     513      0      15.4    25.9  513  561    0      13.6    14.1  525  573
 286     514      0      13.1    20.6  514  546    0      12.4    -6.7  542  574
 287     516      0      19.7    19.9  516  567    0      12.0    15.7  525  576
 288     518      0      17.7    28.5  518  558    0      -0.2    21.6  538  578
 289     520      0      45.6    35.6  520  575    0      42.6    39.6  525  580
 290     522      0      10.0    25.4  522  574    0       6.1    19.1  530  582
 291     523      0      19.2    17.3  523  579    0      18.7    13.8  527  583
 292     525      0      17.9    27.8  525  563    0      17.5     6.1  547  585
 293     527      0      12.1    21.8  527  577    0       6.1    14.5  537  587
 294     529      0      20.0    24.8  529  563    0      -4.4    18.9  555  589
 295     531      0      17.0    27.7  531  570    0       8.1     9.4  552  591
 296     532      0       8.9    33.8  532  577    0       1.9    46.7  547  592
 297     534      0      13.3    25.8  534  571    0      -8.7    21.3  557  594
 298     536      0      11.3    21.6  536  575    0      11.3     0.6  557  596
 299     538      0      18.7    19.9  538  587    0      13.8    11.1  549  598
