0
1000
   0       0      0      57.6    37.5    0  195    0      13.6    41.7   45  240
   1       0      0      20.0     7.8    0  188    0      59.4    41.7   52  240
   2       1      0      14.0     2.8    1  364    0      59.5    37.0   58  421
   3       1      0      48.9     5.4    1  371    0       6.6    30.8   51  421
   4       2      0      26.4    50.7    2  351    0      37.3    51.9   13  362
   5       2      0      47.4    57.4    2  331    0      18.6    46.2   33  362
   6       3      0      31.1    14.1    3  327    0       1.3    32.9   39  363
   7       3      0      15.0    12.6    3   84    0      10.2    50.6   42  123
   8       4      0      18.9    38.1    4  325    0      43.6     9.1   43  364
   9       4      0      12.1    19.2    4  353    0      21.1    25.3   15  364
  10       5      0       4.1    52.4    5  213    0      12.0    22.1   37  245
  11       5      0      18.9    29.9    5  416    0      25.0    35.9   14  425
  12       6      0      10.8    41.0    6  353    0      19.1    31.7   19  366
  13       7      0      25.4    52.4    7  332    0      59.4    57.4   42  367
  14       7      0      13.0    36.0    7  329    0      39.5     9.4   45  367
  15       8      0      38.7    17.0    8  386    0      26.8    56.7   50  428
  16       8      0      45.2    37.9    8  341    0      25.1    54.4   35  368
  17       9      0      14.7    38.1    9  332    0      27.7     3.5   46  369
  18       9      0      40.8    13.5    9  239    0      43.1     4.5   19  249
  19      10      0      17.7    21.7   10  246    0      21.1    22.8   14  250
  20      10      0      52.1    43.1   10  328    0      13.6    58.1   52  370
  21      11      0      29.1     0.4   11  342    0      53.8    14.7   40  371
  22      11      0      12.4     6.5   11  312    0      37.4    59.7   70  371
  23      12      0      12.8    27.7   12  213    0      51.5    27.1   51  252
  24      12      0       1.0    29.0   12  340    0      27.6    12.6   44  372
  25      13      0      54.6    31.5   13  207    0      18.2     3.7   59  253
  26      14      0       7.7    15.2   14  216    0      41.9     0.3   52  254
  27      14      0      59.0    33.8   14  207    0      12.7    27.6   61  254
  28      15      0      32.5    40.7   15  356    0      34.5    22.3   34  375
  29      15      0      11.3    23.7   15  425    0       3.0    28.7   25  435
  30      16      0      36.4    26.9   16  348    0      33.6    53.8   44  376
  31      16      0      51.4    35.6   16  239    0      41.5    48.8   33  256
  32      17      0      26.6    56.3   17  356    0      47.1    54.3   38  377
  33      17      0       3.5     5.4   17  405    0      27.4    25.6   49  437
  34      18      0      22.2    23.1   18  225    0      49.3    41.3   51  258
  35      18      0      47.1     0.1   18   93    0       7.6    20.1   63  138
  36      19      0       6.7    51.4   19   77    0       7.8    52.4   21   79
  37      19      0      26.1    23.0   19  354    0      50.0    18.9   44  379
  38      20      0      36.0    29.9   20  351    0      50.1    54.3   49  380
  39      21      0      54.2    13.2   21  134    0      59.8    16.0   28  141
  40      21      0       2.1    45.7   21  365    0       6.8    31.3   37  381
  41      22      0      28.0    17.0   22  113    0      10.4    39.9   51  142
  42      22      0      31.3     5.4   22  225    0      40.2    41.3   59  262
  43      23      0      53.5    51.1   23  393    0      32.4     5.8   73  443
  44      23      0      40.3    54.5   23  252    0      34.6    45.3   34  263
  45      24      0      25.3    12.0   24  226    0      48.2    41.7   62  264
  46      24      0      51.8    28.6   24  357    0      27.3    39.7   51  384
  47      25      0      44.9    41.9   25  439    0      45.0    36.3   31  445
  48      25      0      13.5    48.8   25  125    0      31.7    55.5   45  145
  49      26      0      50.3    35.1   26  236    0      23.7    48.7   56  266
  50      27      0       5.6     2.4   27  233    0      37.7    13.5   61  267
  51      27      0      44.1    25.1   27  115    0      19.5    44.3   59  147
  52      28      0       0.5     6.3   28  216    0      39.2    40.4   80  268
  53      28      0      37.3    59.9   28  347    0      11.8    28.4   69  388
  54      29      0      45.9    30.8   29  419    0      26.9     7.9   59  449
  55      29      0      42.7    41.0   29  244    0      26.3    59.0   54  269
  56      30      0      27.3    40.3   30  223    0       3.1     0.3   77  270
  57      30      0      34.5    12.5   30  352    0      46.8    48.3   68  390
  58      31      0      49.9    18.6   31  416    0      16.7     9.0   66  451
  59      31      0      16.0    17.1   31   67    0       9.9    -5.6   55   91
  60      32      0       4.5    28.0   32  345    0      49.7    16.0   79  392
  61      32      0      33.1    41.1   32  255    0      16.5    44.6   49  272
  62      33      0      19.6    28.8   33   88    0      19.6    24.4   38   93
  63      34      0       0.1    49.6   34  401    0      50.2    32.6   87  454
  64      34      0      21.1     0.7   34  373    0      28.7    19.2   55  394
  65      35      0      19.7    51.1   35  111    0       5.9    10.3   79  155
  66      35      0      14.4     0.8   35  425    0      26.9    28.0   65  455
  67      36      0      19.7    38.9   36  381    0      32.7    32.0   51  396
  68      36      0      51.1    24.6   36  259    0      53.7    41.2   53  276
  69      37      0      12.6     8.1   37  142    0       4.9    20.2   52  157
  70      37      0      42.7    21.8   37  144    0      44.5     9.7   50  157
  71      38      0      27.2    27.5   38  248    0      14.2    54.4   68  278
  72      38      0      16.4    35.4   38  355    0      56.2    21.9   81  398
  73      39      0      47.1    35.7   39  262    0      58.2    24.1   56  279
  74      39      0      27.3    19.9   39  241    0      20.3    56.8   77  279
  75      40      0      29.9    45.9   40  244    0      49.5    16.0   76  280
  76      41      0      46.1    17.0   41  366    0      27.7    46.0   76  401
  77      41      0      18.1    40.4   41  354    0      55.2    11.7   88  401
  78      42      0      18.4     7.5   42  387    0       7.2    16.0   57  402
  79      42      0      57.2     7.3   42  361    0      16.9     8.1   83  402
  80      43      0      16.5     4.8   43  250    0      48.9     0.2   76  283
  81      43      0       3.7    56.0   43  396    0      10.6    55.7   50  403
  82      44      0       5.0    54.2   44  368    0      21.3    23.2   80  404
  83      44      0      27.9    58.8   44  432    0       3.1    38.7   76  464
  84      45      0      48.0    19.6   45  383    0      27.2    15.4   67  405
  85      45      0      14.4    49.0   45  274    0       8.3    41.0   56  285
  86      46      0      45.0    14.2   46  259    0      23.5    30.2   73  286
  87      46      0      14.1    26.5   46  260    0      32.4    43.8   72  286
  88      47      0       2.9    24.1   47  231    0      57.6    30.0  103  287
  89      48      0      14.0     7.9   48  249    0      30.1    42.6   87  288
  90      48      0      11.0    16.3   48  455    0      13.8    28.7   61  468
  91      49      0      58.4    53.2   49  370    0      41.7    18.6   88  409
  92      49      0      23.8    33.7   49  383    0      36.5    11.4   75  409
  93      50      0      50.6    20.0   50  265    0      28.9    31.3   75  290
  94      50      0      36.8    26.0   50  271    0      54.9    22.5   69  290
  95      51      0      27.2     2.6   51  396    0      41.9     0.2   66  411
  96      51      0       2.8     5.5   51  366    0      31.8    39.6   96  411
  97      52      0      40.1    13.9   52  272    0      21.6     6.4   72  292
  98      52      0       8.7    46.5   52  256    0      20.2    12.4   88  292
  99      53      0       3.4    59.1   53  385    0      30.1    52.1   81  413
 100      54      0      24.3    46.1   54  388    0      14.2    22.2   80  414
 101      54      0      50.3    20.1   54  286    0      56.5    25.1   62  294
 102      55      0      11.3    28.7   55  387    0       7.3     1.6   83  415
 103      55      0       6.6    56.1   55  453    0      14.4    36.0   77  475
 104      56      0      24.5    26.4   56  261    0      56.8    37.7   91  296
 105      56      0      37.9    28.1   56  263    0       5.9    31.2   89  296
 106      57      0      44.2    33.9   57  384    0      46.9     1.1   90  417
 107      57      0      25.5    29.8   57  282    0      34.5    18.5   72  297
 108      58      0      32.9     5.8   58  288    0      42.4     4.9   68  298
 109      58      0      32.8    37.6   58  391    0      13.8    18.5   85  418
 110      59      0      39.0    39.5   59  384    0      10.3    20.1   94  419
 111      59      0      18.7    15.3   59  109    0       9.3    12.1   69  119
 112      60      0       3.4    27.9   60  382    0      37.0    12.1   98  420
 113      61      0      30.3    11.7   61  273    0      44.9    35.3   89  301
 114      61      0      22.5     8.1   61  402    0       4.6    13.1   80  421
 115      62      0      14.4    44.5   62  397    0      38.1    37.8   87  422
 116      62      0      59.4    42.8   62  450    0      45.6    15.0   94  482
 117      63      0       4.3     5.3   63  404    0      19.9    15.5   82  423
 118      63      0      10.3     8.1   63  426    0      59.1    36.2  120  483
 119      64      0      23.8    18.9   64  396    0      50.4    11.1   92  424
 120      64      0      10.2    28.6   64  461    0      17.8     7.3   87  484
 121      65      0      31.8    58.3   65  391    0      31.0    25.1   99  425
 122      65      0      59.1    17.2   65  392    0      30.4    31.4   98  425
 123      66      0      38.4    53.7   66  384    0      36.4    12.6  108  426
 124      66      0      37.0     9.7   66  406    0      17.4     7.7   86  426
 125      67      0       4.6    55.1   67  372    0      21.3     3.1  122  427
 126      68      0      30.3    49.5   68  278    0      31.3    20.4   98  308
 127      68      0      34.6     2.9   68  392    0      30.3    37.8  104  428
 128      69      0      27.0    57.4   69  439    0      40.2     9.3  119  489
 129      69      0      23.1     4.0   69  395    0       0.5    29.3  103  429
 130      70      0       7.9    35.8   70  411    0      20.5    50.0   89  430
 131      70      0      17.7    25.1   70  289    0      35.9    33.9   91  310
 132      71      0      45.0    10.6   71  301    0      50.9     2.9   81  311
 133      71      0      34.1    12.5   71  281    0       4.7    13.8  101  311
 134      72      0      13.5    34.2   72  261    0      56.8     8.6  123  312
 135      72      0      33.2    57.6   72  306    0      29.9    52.6   78  312
 136      73      0      53.2    48.3   73  262    0       7.5    26.7  124  313
 137      73      0       6.0    12.4   73  386    0      43.1    40.6  120  433
 138      74      0      31.9    20.4   74  401    0       1.7    32.4  107  434
 139      75      0      50.2    24.7   75  293    0      57.2    45.3   97  315
 140      75      0       1.6    27.5   75  393    0      42.5    21.3  117  435
 141      76      0      33.3     2.1   76  265    0       3.8    42.5  127  316
 142      76      0      16.6    17.3   76  291    0      41.1    21.6  101  316
 143      77      0      57.0    51.6   77  369    0       7.1     5.7  145  437
 144      77      0      53.6    10.9   77  395    0      41.6    50.9  119  437
 145      78      0      11.5     4.8   78  426    0       0.7     0.4   90  438
 146      78      0      27.1     2.3   78  458    0      14.6    39.7  118  498
 147      79      0      20.6    39.4   79  389    0      55.6     3.7  129  439
 148      79      0      57.0    44.7   79  400    0      19.3    53.5  118  439
 149      80      0      44.9    36.5   80  434    0      40.5    40.1   86  440
 150      81      0      26.0    42.2   81  422    0      13.2    29.0  100  441
 151      81      0      42.9    17.7   81  420    0      22.5    21.2  102  441
 152      82      0      22.3    33.7   82  430    0      12.7    39.5   94  442
 153      82      0      15.9    51.9   82  404    0      37.7    21.9  120  442
 154      83      0      55.2    44.1   83  292    0      52.2    13.6  114  323
 155      83      0      18.1     1.6   83  310    0       6.3     6.8   96  323
 156      84      0       4.4    56.4   84  267    0      58.6    42.3  141  324
 157      84      0      24.7    25.5   84  413    0      37.7    52.8  115  444
 158      85      0      31.5    16.7   85  478    0       5.3    16.4  112  505
 159      85      0      54.1     9.4   85  473    0      25.8    23.2  117  505
 160      86      0       3.3    11.8   86  456    0      52.0     0.5  136  506
 161      86      0      33.9    46.1   86  294    0      40.7    15.4  118  326
 162      87      0       8.2    39.4   87  407    0      45.3    52.9  127  447
 163      88      0      54.4    58.0   88  465    0      46.9    16.3  131  508
 164      88      0       4.3    58.2   88  449    0      37.0     9.6  147  508
 165      89      0      50.4    59.5   89  267    0       6.5    16.3  151  329
 166      89      0      13.8    56.4   89  407    0      39.6    23.6  131  449
 167      90      0      29.3    11.5   90  422    0      37.8    38.1  118  450
 168      90      0      24.3    15.5   90  487    0      41.8     1.8  113  510
 169      91      0      23.2    47.0   91  461    0      51.7     6.6  141  511
 170      91      0      54.9    37.2   91  412    0      20.5    53.6  130  451
 171      92      0      41.4    45.3   92  471    0       7.4    22.7  133  512
 172      92      0       5.9    51.1   92  306    0      30.1    44.5  118  332
 173      93      0      30.0    28.9   93  322    0      20.3    25.1  104  333
 174      93      0      26.4     4.0   93  393    0      59.5    53.8  153  453
 175      94      0      21.5    17.7   94  300    0       2.0    45.5  128  334
 176      95      0      35.0    14.1   95  435    0      54.2    10.1  115  455
 177      95      0      32.0     7.6   95  282    0      54.2    54.9  148  335
 178      96      0      14.1    47.3   96  430    0      36.8    59.4  122  456
 179      96      0      42.1    36.4   96  411    0       6.9     9.7  141  456
 180      97      0       3.0    36.9   97  405    0      40.5     1.1  149  457
 181      97      0       9.4    52.3   97  424    0      41.8    49.3  130  457
 182      98      0      20.5    29.6   98  313    0      15.5     5.3  123  338
 183      98      0      49.5    43.7   98  478    0      37.9     6.1  138  518
 184      99      0      14.8    21.4   99  443    0       2.0    13.1  115  459
 185      99      0      14.5     2.6   99  323    0      26.5    11.7  115  339
 186     100      0      14.7    39.5  100  476    0      58.1    42.0  144  520
 187     100      0      45.2    51.9  100  453    0      39.1    55.1  107  460
 188     101      0      39.9     0.8  101  489    0      26.9    29.6  133  521
 189     102      0      31.3    24.8  102  500    0      45.2     8.9  124  522
 190     102      0      43.4    30.4  102  451    0      33.2    33.9  113  462
 191     103      0      16.5    40.7  103  317    0      40.5    47.9  129  343
 192     103      0      13.1     8.3  103  410    0      22.7    59.9  156  463
 193     104      0      15.1    57.8  104  420    0      52.2    35.6  148  464
 194     104      0      17.1    23.3  104  422    0      55.6     7.2  146  464
 195     105      0      27.3    49.5  105  311    0      16.8    17.8  139  345
 196     105      0      34.4    12.2  105  509    0      21.5    21.6  121  525
 197     106      0      13.6    31.4  106  305    0      50.0    48.0  147  346
 198     106      0      11.3     4.6  106  438    0       2.5    30.8  134  466
 199     107      0      49.5    45.8  107  450    0      47.4    29.2  124  467
 200     108      0      16.9    18.5  108  321    0       9.5    44.4  135  348
 201     108      0      57.0    11.9  108  443    0      50.5    36.0  133  468
 202     109      0      47.3    48.4  109  318    0      49.7    17.9  140  349
 203     109      0       0.8    55.4  109  421    0      24.2    14.1  157  469
 204     110      0      42.8    48.7  110  433    0      17.9    22.2  147  470
 205     110      0      10.4    23.9  110  481    0      58.6    28.7  159  530
 206     111      0      14.4    49.1  111  494    0      46.7    31.5  148  531
 207     111      0       5.9    25.8  111  302    0      47.7    49.7  160  351
 208     112      0      36.9    40.5  112  454    0      20.8    33.6  130  472
 209     112      0      45.1    38.3  112  439    0      27.6    10.4  145  472
 210     113      0       5.8    44.6  113  425    0      52.8    38.0  161  473
 211     113      0       3.6    20.9  113  467    0       1.2    25.5  119  473
 212     114      0      44.4     4.0  114  338    0      47.1    19.3  130  354
 213     115      0      33.6    58.6  115  451    0      24.6    37.2  139  475
 214     115      0      26.5    24.4  115  459    0      41.0    30.4  131  475
 215     116      0      27.9    20.7  116  531    0      24.8    17.7  121  536
 216     116      0      39.5    45.6  116  446    0      10.9    38.8  146  476
 217     117      0       9.9     9.8  117  463    0      21.6    16.5  131  477
 218     117      0      34.5    32.4  117  503    0      14.6    59.6  151  537
 219     118      0      59.2    19.1  118  423    0      16.0    51.9  173  478
 220     118      0      19.8    55.7  118  463    0      34.4    54.0  133  478
 221     119      0       8.9     2.0  119  413    0      52.3    51.7  185  479
 222     119      0       6.5    26.7  119  458    0      26.4    29.1  140  479
 223     120      0      24.2    11.2  120  314    0      18.2    56.7  166  360
 224     120      0      24.0    13.1  120  515    0      44.5     0.3  145  540
 225     121      0      11.5    43.1  121  474    0      12.4    37.1  128  481
 226     122      0      34.2    50.2  122  322    0       1.5    27.4  162  362
 227     122      0      31.0    33.8  122  524    0      20.2    19.5  140  542
 228     123      0      32.7    23.1  123  322    0       3.7    51.4  164  363
 229     123      0      32.3    32.3  123  338    0      26.6    56.1  148  363
 230     124      0      14.7     1.4  124  463    0      21.4    20.4  145  484
 231     124      0      46.8    29.7  124  314    0       3.4     6.8  174  364
 232     125      0      23.1    21.7  125  450    0       7.2    52.8  160  485
 233     125      0       0.6    15.9  125  465    0      18.1     6.5  145  485
 234     126      0       3.2     1.2  126  432    0      19.0    52.7  180  486
 235     126      0      30.3    45.4  126  480    0      33.7    49.7  132  486
 236     127      0      36.0    20.2  127  332    0      12.7    46.3  162  367
 237     127      0      32.5    33.8  127  476    0      42.5    36.0  138  487
 238     128      0      40.5    27.5  128  464    0      27.3    47.2  152  488
 239     129      0      14.0    27.8  129  474    0       8.0    15.0  144  489
 240     129      0      56.5    19.7  129  436    0       4.1    13.4  182  489
 241     130      0       6.2     3.2  130  505    0      20.1    45.8  175  550
 242     130      0       2.9    55.8  130  328    0      41.7    40.1  172  370
 243     131      0      13.1    56.7  131  508    0      43.7    27.5  174  551
 244     131      0      44.4    45.3  131  357    0      55.9    52.6  145  371
 245     132      0      56.0    21.4  132  456    0      23.1    33.9  168  492
 246     132      0      35.0    55.9  132  441    0      17.0     8.5  183  492
 247     133      0      58.5    48.7  133  524    0      52.3    21.1  162  553
 248     133      0      24.1    42.8  133  477    0      10.0    49.1  149  493
 249     134      0      16.2    57.1  134  504    0      28.7     8.9  184  554
 250     135      0       8.7    41.9  135  333    0      48.8    30.3  177  375
 251     135      0      34.2    13.5  135  473    0      54.0     5.8  157  495
 252     136      0       4.1     2.4  136  336    0       7.1    41.8  176  376
 253     136      0       7.2    23.8  136  516    0      46.1    29.6  176  556
 254     137      0      54.7     3.2  137  442    0      15.7    41.5  192  497
 255     137      0      37.7     8.6  137  507    0       1.6    42.3  187  557
 256     138      0      20.8    41.6  138  463    0      52.1    55.2  173  498
 257     138      0       9.8    44.6  138  362    0      20.8    33.8  154  378
 258     139      0      42.5    49.6  139  362    0      59.2    51.4  156  379
 259     139      0       2.4    11.5  139  513    0      19.3    53.6  185  559
 260     140      0      30.9    44.3  140  354    0      50.6    28.0  166  380
 261     140      0      33.8    30.7  140  496    0      37.4    30.7  144  500
 262     141      0      19.6    33.0  141  545    0      32.0    41.6  157  561
 263     142      0      59.8    26.1  142  341    0      28.7    52.6  183  382
 264     142      0       7.6    56.9  142  324    0      59.4    31.5  200  382
 265     143      0      20.6    39.5  143  369    0      31.6    31.8  157  383
 266     143      0      35.8    52.2  143  356    0      53.9    32.4  170  383
 267     144      0      17.9    56.3  144  482    0      11.6    35.9  166  504
 268     144      0      17.6     4.5  144  472    0      21.5    35.8  176  504
 269     145      0      58.1    24.1  145  339    0      22.2    51.4  191  385
 270     145      0      43.2    35.5  145  488    0      38.7    19.3  162  505
 271     146      0      50.1    32.4  146  456    0       5.3    10.9  196  506
 272     146      0      11.3    57.5  146  540    0      28.9    38.7  172  566
 273     147      0      56.6    31.8  147  547    0      41.7    19.7  167  567
 274     147      0      28.8    19.9  147  475    0      51.6    42.2  179  507
 275     148      0      44.3    35.9  148  466    0      22.2     1.3  190  508
 276     149      0      32.6    56.0  149  361    0      54.4    39.2  177  389
 277     149      0      33.9     8.6  149  482    0      40.9    34.1  176  509
 278     150      0      25.6    29.1  150  487    0      31.2     6.8  173  510
 279     150      0       1.5    51.6  150  502    0      49.1     4.1  218  570
 280     151      0      58.7    25.6  151  542    0      34.3    10.7  180  571
 281     151      0      26.5    20.7  151  493    0      32.6    37.3  169  511
 282     152      0       5.8    39.4  152  494    0      12.8    55.4  170  512
 283     152      0      25.4    44.9  152  242    0      17.0    16.4  182  272
 284     153      0       0.0    15.7  153  535    0      31.3    35.6  191  573
 285     153      0       1.4    29.9  153  462    0      51.6    21.2  204  513
 286     154      0      39.0    43.1  154  567    0      32.8    42.2  161  574
 287     154      0      43.7    34.6  154  486    0      35.3     8.5  182  514
 288     155      0      26.2    56.0  155  473    0      35.4    15.5  197  515
 289     156      0      10.7     5.6  156  493    0       0.3    25.2  179  516
 290     156      0       0.5    23.7  156  346    0      49.8    21.0  206  396
 291     157      0      11.2     8.0  157  539    0      38.3    33.4  195  577
 292     157      0      52.4     2.0  157  479    0      17.0    15.2  195  517
 293     158      0      48.2     7.6  158  384    0      36.2     1.8  172  398
 294     158      0      46.3    36.8  158  380    0      44.8    54.6  176  398
 295     159      0      25.3     5.5  159  477    0      31.5    46.5  201  519
 296     159      0      21.6     4.6  159  500    0       4.9    11.6  178  519
 297     160      0      32.7    10.5  160  355    0      31.7    54.8  205  400
 298     160      0      42.2    56.6  160  525    0      48.2     2.8  215  580
 299     161      0      51.6    31.9  161  389    0      41.7    38.5  173  401
 300     162      0      19.5    12.7  162  375    0      44.7    19.4  189  402
 301     162      0      59.2     1.4  162  523    0       1.3    11.9  221  582
 302     163      0      31.3     2.6  163  375    0      20.9    27.6  191  403
 303     163      0      54.0    33.4  163  499    0      31.1    30.2  187  523
 304     164      0       7.9    40.6  164  262    0       2.1    20.3  186  284
 305     164      0       2.5    45.6  164  501    0      22.3    56.1  187  524
 306     165      0       8.4    27.1  165  359    0      45.3     0.0  211  405
 307     165      0      54.0    45.1  165  473    0       9.7    19.0  217  525
 308     166      0       9.6    24.0  166  506    0      28.1    17.1  186  526
 309     166      0      54.3    45.8  166  456    0       1.6     0.5  236  526
 310     167      0      12.5    59.4  167  522    0      14.6    55.3  172  527
 311     167      0      36.8    39.4  167  507    0      17.8    41.5  187  527
 312     168      0      37.7    50.9  168  500    0      17.0    32.7  196  528
 313     169      0      36.4    52.5  169  355    0       9.7     6.1  223  409
 314     169      0       1.8    45.1  169  499    0      23.7    25.0  199  529
 315     170      0      50.6     2.6  170  476    0       1.9    25.5  224  530
 316     170      0      40.3     4.9  170  396    0      53.7     4.4  184  410
 317     171      0       6.2    23.3  171  507    0      26.5    12.4  195  531
 318     171      0      27.9    53.6  171  504    0       7.0    37.3  198  531
 319     172      0      57.8     1.5  172  497    0      23.9     8.7  207  532
 320     172      0      16.2    57.6  172  475    0      26.9     1.7  229  532
 321     173      0      54.7     7.1  173  472    0      13.3    50.7  234  533
 322     173      0      27.9    27.5  173  515    0      13.3    17.0  191  533
 323     174      0      24.3    25.8  174  564    0      53.1    18.1  204  594
 324     174      0      44.9    38.5  174  274    0      59.7    26.1  194  294
 325     175      0      26.0     1.1  175  486    0      27.6    49.7  224  535
 326     176      0      13.2     3.8  176  381    0      15.6    37.8  211  416
 327     176      0      24.9    56.8  176  567    0      46.1    38.4  205  596
 328     177      0      31.8    49.0  177  510    0      58.6    46.3  204  537
 329     177      0      31.5    14.5  177  495    0      22.6    55.4  219  537
 330     178      0      44.0    33.0  178  399    0      31.1    20.1  197  418
 331     178      0       7.8    45.2  178  276    0      29.1    41.8  200  298
 332     179      0      39.1    35.6  179  572    0      24.5    13.1  206  599
 333     179      0      20.6    31.2  179  398    0      18.5    11.0  200  419
 334     180      0      51.4    37.3  180  494    0      20.4     4.3  226  540
 335     180      0      31.8    14.1  180  391    0      51.0    35.1  209  420
 336     181      0      24.5    36.4  181  519    0       7.8    49.9  203  541
 337     181      0       9.3     2.9  181  534    0      14.7     7.1  188  541
 338     182      0      22.0     6.4  182  492    0       1.8    52.1  232  542
 339     183      0      54.3    25.1  183  408    0      41.2    32.2  198  423
 340     183      0      19.9    27.1  183  221    0      12.9     6.6  205  243
 341     184      0      18.0    25.8  184  411    0      23.8    15.2  197  424
 342     184      0      36.6    23.5  184  518    0      58.6    10.2  210  544
 343     185      0      21.2    18.6  185  415    0      15.6    11.3  195  425
 344     185      0      47.3     0.6  185  413    0      58.5     4.6  197  425
 345     186      0      45.9     8.8  186  531    0      59.4     3.8  201  546
 346     186      0      37.7    48.2  186  518    0      17.7    29.1  214  546
 347     187      0      26.0    35.2  187  396    0       9.8     9.6  218  427
 348     187      0      41.2    59.6  187  494    0      37.0     6.8  240  547
 349     188      0      23.1    42.8  188  403    0      24.2    18.8  213  428
 350     189      0      15.9    29.1  189  221    0       9.0     2.2  217  249
 351     189      0      46.3    13.1  189  518    0      16.1    13.5  220  549
 352     190      0      14.9    23.4  190  231    0       1.9    10.0  209  250
 353     190      0       6.6    11.4  190  500    0      50.1    35.4  240  550
 354     191      0       5.3    10.0  191  519    0       7.4    41.6  223  551
 355     191      0      16.4    41.2  191  399    0      46.7    33.5  223  431
 356     192      0      17.3    16.7  192  239    0       4.5    15.0  205  252
 357     192      0      17.3    30.5  192  400    0       4.5    59.2  224  432
 358     193      0      49.2     8.1  193  400    0      49.7    40.2  226  433
 359     193      0      21.6    25.0  193  534    0       5.0    17.4  212  553
 360     194      0      28.5    47.4  194  540    0      17.5    54.7  208  554
 361     194      0      50.5    38.5  194  523    0      54.1     8.7  225  554
 362     195      0      33.9    29.3  195  422    0      32.0    16.9  208  435
 363     196      0      20.8    46.9  196  546    0      26.2    39.6  206  556
 364     196      0      41.1    29.9  196  549    0      39.3    23.4  203  556
 365     197      0      10.1     6.1  197  513    0      53.2    10.0  241  557
 366     197      0      44.9    20.6  197  413    0      31.5    40.4  221  437
 367     198      0      42.1    20.0  198  532    0      19.6     8.1  224  558
 368     198      0      43.3    54.3  198  504    0      50.3     1.7  252  558
 369     199      0      49.0    32.2  199  557    0      47.5    31.3  201  559
 370     199      0      30.8    14.7  199  533    0      43.9    36.7  225  559
 371     200      0      17.3     8.3  200  399    0      49.9    31.6  241  440
 372     200      0      12.4     3.5  200  541    0      13.8    21.5  219  560
 373     201      0      18.9    45.3  201  413    0      46.7    46.0  229  441
 374     201      0      40.2    32.6  201  237    0      17.2    37.2  225  261
 375     202      0      23.0    59.5  202  507    0      13.3     5.8  257  562
 376     203      0      57.6    38.8  203  419    0      50.3    16.6  227  443
 377     203      0      13.2    27.5  203  238    0       9.8     3.4  228  263
 378     204      0      12.5    29.5  204  548    0       2.6    41.3  220  564
 379     204      0      34.2     2.5  204  520    0      53.7    41.5  248  564
 380     205      0      15.7    59.3  205  392    0      29.4     9.1  258  445
 381     205      0       2.3    43.3  205  411    0      35.5    43.6  239  445
 382     206      0       7.8     8.3  206  409    0      41.8    22.2  243  446
 383     206      0      51.0    44.5  206  528    0      55.1     6.9  244  566
 384     207      0       6.4    21.8  207  438    0       6.4    29.9  216  447
 385     207      0      33.6     8.4  207  531    0      50.1    40.0  243  567
 386     208      0      32.5    19.9  208  408    0      25.8    58.9  248  448
 387     208      0       5.9    55.6  208  548    0      13.9    38.3  228  568
 388     209      0      47.3    40.4  209  542    0      20.8    45.0  236  569
 389     210      0      14.2    37.8  210  544    0       3.0    15.0  236  570
 390     210      0      50.2    21.0  210  548    0      35.1     6.3  232  570
 391     211      0      31.8    17.9  211  255    0      31.2    33.1  227  271
 392     211      0      56.8    27.1  211  538    0      29.7    45.9  244  571
 393     212      0      54.4     1.8  212  538    0      35.6    29.4  246  572
 394     212      0      25.5    25.1  212  418    0      10.3    54.7  246  452
 395     213      0      10.4    27.2  213  244    0      -9.0     6.3  242  273
 396     213      0       5.3    54.2  213  530    0      33.4    22.9  256  573
 397     214      0      48.2    42.2  214  442    0      41.5    51.6  226  454
 398     214      0      55.8    26.1  214  537    0      20.8    17.1  251  574
 399     215      0      26.8    32.7  215  427    0      54.6    36.0  243  455
 400     216      0      36.4    33.9  216  540    0      25.7     0.1  252  576
 401     216      0      57.3    37.0  216  405    0       8.0    24.6  267  456
 402     217      0      51.6    34.5  217  558    0      59.9    50.6  236  577
 403     217      0      29.4     1.2  217  447    0      31.4    10.8  227  457
 404     218      0      56.4    54.6  218  548    0      40.3    29.9  248  578
 405     218      0      32.0     6.5  218  557    0      12.4     2.3  239  578
 406     219      0      23.2    18.5  219  439    0      42.3    20.5  239  459
 407     219      0       7.1    47.8  219  420    0      30.5    16.9  258  459
 408     220      0       3.9    37.6  220  555    0      26.9    29.0  245  580
 409     220      0       5.6    15.3  220  546    0       4.4    48.4  254  580
 410     221      0       7.9    30.2  221  568    0      14.9    20.4  234  581
 411     221      0      58.9    24.0  221  551    0      35.5     5.4  251  581
 412     222      0      18.6     6.7  222  411    0      42.4    51.5  273  462
 413     223      0      39.5    19.0  223  454    0      32.4    24.5  232  463
 414     223      0       2.2    55.8  223  526    0      51.0    27.1  280  583
 415     224      0      47.5     1.0  224  548    0      52.2    36.6  260  584
 416     224      0      34.8    22.1  224  273    0      44.7    25.6  235  284
 417     225      0      14.5    29.8  225  267    0       4.5    16.0  243  285
 418     225      0      30.2    54.4  225  553    0      17.5    25.7  257  585
 419     226      0      50.0     7.0  226  517    0       1.4    55.3  295  586
 420     226      0      30.3     4.7  226  427    0      58.4    31.1  265  466
 421     227      0      19.1    27.1  227  553    0       4.1    57.4  261  587
 422     227      0      52.6    50.1  227  453    0      42.2    41.0  241  467
 423     228      0      33.5    35.2  228  580    0      30.7    28.0  236  588
 424     228      0      21.2    27.1  228  556    0      37.7    54.0  260  588
 425     229      0       3.5    47.1  229  560    0      13.9    20.9  258  589
 426     230      0      11.0     2.0  230  430    0      33.1    34.2  270  470
 427     230      0      10.9    36.2  230  578    0       5.3    26.0  242  590
 428     231      0      53.7    20.0  231  559    0      24.8     6.8  263  591
 429     231      0      13.7    59.1  231  552    0      21.0    21.8  270  591
 430     232      0      12.0     7.4  232  551    0      50.7    20.0  273  592
 431     232      0      21.7     7.2  232  423    0      24.1    55.2  281  472
 432     233      0      18.8    22.8  233  282    0      16.8    12.5  244  293
 433     233      0      47.6    28.5  233  546    0       3.5    12.9  280  593
 434     234      0       1.6    56.3  234  572    0      21.5    48.3  256  594
 435     234      0      52.0    59.9  234  538    0       0.5    39.2  290  594
 436     235      0      28.9    44.7  235  575    0       9.7    39.5  255  595
 437     235      0      44.5     7.5  235  576    0      40.8    25.3  254  595
 438     236      0       4.8    38.9  236  421    0      49.6     7.6  291  476
 439     237      0       5.6    32.1  237  552    0      45.9    51.0  282  597
 440     237      0      59.6    25.9  237  552    0      20.9    47.9  282  597
 441     238      0      18.6    25.6  238  293    0      15.1    22.5  243  298
 442     238      0      29.3     1.3  238  546    0      16.4    51.2  290  598
 443     239      0      35.3    54.0  239  433    0      36.8     8.9  285  479
 444     239      0       3.4    55.4  239  545    0      28.1     8.1  293  599
 445     240      0      21.7    48.1  240  322    0      56.4    34.4  278  360
 446     240      0      42.7    13.9  240  469    0      49.0    21.9  251  480
 447     241      0       7.2    36.6  241  453    0      28.4    54.5  269  481
 448     241      0      14.9    28.5  241  335    0      31.4    48.5  267  361
 449     242      0      34.5    46.4  242  467    0      47.1    38.9  257  482
 450     243      0      35.7     8.7  243  429    0      20.2    59.5  297  483
 451     243      0      46.3    14.2  243  427    0       4.9    51.4  299  483
 452     244      0      26.8    40.7  244  346    0      41.6    31.2  262  364
 453     244      0      24.7    38.6  244  467    0      18.2    53.5  261  484
 454     245      0       6.7    48.1  245  436    0      27.1     4.2  294  485
 455     245      0      30.0    19.0  245  464    0      45.7    31.6  266  485
 456     246      0      11.4    19.8  246  457    0      40.3    18.5  275  486
 457     246      0      50.7     4.9  246  456    0      24.3    17.8  276  486
 458     247      0       4.8    52.5  247  435    0      55.7    57.4  299  487
 459     247      0      30.9    51.8  247  341    0      34.5    26.9  273  367
 460     248      0      18.5    50.7  248  442    0       5.8     7.4  294  488
 461     248      0      25.1    51.9  248  330    0      32.6    14.9  286  368
 462     249      0      58.3    55.3  249  436    0      20.8    18.4  302  489
 463     250      0      11.1    26.6  250  467    0      32.1    20.0  273  490
 464     250      0      25.5     7.5  250  457    0      35.9    38.6  283  490
 465     251      0      43.1    11.7  251  454    0      30.1    46.3  288  491
 466     251      0       5.1     1.4  251  466    0      20.2    20.6  276  491
 467     252      0      26.7    44.5  252  360    0      18.1    36.4  264  372
 468     252      0      18.9     6.8  252  485    0      17.9    13.4  259  492
 469     253      0      15.8    38.2  253  483    0      21.8    46.1  263  493
 470     253      0      39.3    15.5  253  353    0      37.1    34.7  273  373
 471     254      0      30.4    20.0  254  470    0      13.0     3.7  278  494
 472     254      0      57.0    14.2  254  449    0      19.7    37.8  299  494
 473     255      0      11.5    15.4  255  331    0      54.8    16.7  299  375
 474     255      0      38.3     9.3  255  449    0       0.7    34.1  301  495
 475     256      0      19.7    34.1  256  346    0      15.5     5.4  286  376
 476     257      0      31.8     7.4  257  368    0      26.4     0.9  266  377
 477     257      0      56.3    46.8  257  468    0      28.2    52.0  286  497
 478     258      0      53.0     9.6  258  495    0      52.2     7.0  261  498
 479     258      0      19.8     1.7  258  460    0      42.6    31.2  296  498
 480     259      0      40.9    49.3  259  463    0       8.4    35.0  295  499
 481     259      0      23.1    45.2  259  366    0      13.1    37.2  272  379
 482     260      0      22.8    11.4  260  466    0       4.2    39.7  294  500
 483     260      0      49.1     2.6  260  336    0      23.5    38.3  304  380
 484     261      0      12.8    13.3  261  481    0       3.9    30.3  281  501
 485     261      0       0.3    44.6  261  457    0      17.0     4.3  305  501
 486     262      0       7.9    32.6  262  337    0      49.7    47.6  307  382
 487     262      0      52.2     5.5  262  488    0      50.9    19.4  276  502
 488     263      0      33.8    34.2  263  479    0      30.8    57.7  287  503
 489     264      0      15.3    36.6  264  371    0       3.0    38.6  277  384
 490     264      0      52.9    48.7  264  335    0       7.8    29.8  313  384
 491     265      0      46.4    45.5  265  469    0      12.3    35.5  301  505
 492     265      0       6.4    43.6  265  498    0       7.2    37.4  272  505
 493     266      0      43.5    42.4  266  500    0      46.7    46.7  272  506
 494     266      0      40.6    53.1  266  340    0      27.5     9.7  312  386
 495     267      0      41.6     4.9  267  483    0      19.0     0.5  291  507
 496     267      0      58.1    18.6  267  488    0      41.7    28.0  286  507
 497     268      0      36.9    42.4  268  339    0       8.4     2.6  317  388
 498     268      0      43.4    53.6  268  479    0      52.1    26.6  297  508
 499     269      0      54.6    46.6  269  478    0      25.6    37.7  300  509
 500     270      0      55.7    58.5  270  336    0       7.2    36.9  324  390
 501     270      0      43.6    25.2  270  345    0       8.8    53.4  315  390
 502     271      0      32.2    39.8  271  367    0       9.6    46.2  295  391
 503     271      0      48.5    48.8  271  345    0      47.3     3.8  317  391
 504     272      0      15.2    51.2  272  377    0       1.9    46.8  287  392
 505     272      0      27.9    31.5  272  368    0      50.1    38.4  296  392
 506     273      0      41.6    19.5  273  469    0       3.6    40.1  317  513
 507     273      0      52.7    13.6  273  496    0      36.8    17.4  290  513
 508     274      0       0.5    36.8  274  464    0      44.5    58.5  324  514
 509     274      0      19.1    42.1  274  502    0      12.4    32.9  286  514
 510     275      0      50.8    45.6  275  354    0      52.5     5.0  316  395
 511     275      0       2.3    56.3  275  493    0      15.4    38.7  297  515
 512     276      0      32.3    40.6  276  496    0      26.8    21.8  296  516
 513     277      0      52.9     1.0  277  468    0      10.7    25.6  326  517
 514     277      0      46.9    57.0  277  346    0       1.1    35.1  328  397
 515     278      0       2.7    30.8  278  469    0      46.1     8.4  327  518
 516     278      0      16.7    53.3  278  496    0      21.2    32.0  300  518
 517     279      0      48.6    43.4  279  379    0      42.7    25.1  299  399
 518     279      0      26.5    39.3  279  503    0      10.7    38.5  295  519
 519     280      0       6.2    29.6  280  468    0      48.1    59.9  332  520
 520     280      0       1.6    18.7  280  341    0      43.5    59.9  339  400
 521     281      0      56.0    54.4  281  346    0      50.0     0.7  336  401
 522     281      0      50.4    31.4  281  378    0      40.3    11.5  304  401
 523     282      0      32.2    57.5  282  506    0      23.4    45.2  298  522
 524     282      0       5.1    54.8  282  370    0      16.2    25.8  314  402
 525     283      0      27.9    28.0  283  493    0       2.1    13.4  313  523
 526     284      0      38.6    26.5  284  516    0      41.2    19.5  292  524
 527     284      0       4.3    24.5  284  494    0      18.1    50.6  314  524
 528     285      0      28.7    33.3  285  499    0      28.8    59.2  311  525
 529     285      0      22.2    59.3  285  480    0      24.1    14.7  330  525
 530     286      0       5.1    52.2  286  354    0      42.4    16.5  338  406
 531     286      0      19.9    58.4  286  514    0      30.5    53.6  298  526
 532     287      0      31.4     9.7  287  514    0      43.6     5.3  300  527
 533     287      0      56.1     2.1  287  378    0      50.1    29.6  316  407
 534     288      0      32.8    58.9  288  393    0      22.7    48.4  303  408
 535     288      0       7.3     9.6  288  367    0      47.1    15.6  329  408
 536     289      0      38.8    51.7  289  364    0      57.9    11.8  334  409
 537     289      0       5.4     8.7  289  476    0      57.9     8.6  342  529
 538     290      0      47.1    39.4  290  513    0      30.8    44.0  307  530
 539     291      0      29.1     4.0  291  381    0      37.4    32.1  321  411
 540     291      0      14.5    40.0  291  490    0      52.3    25.9  332  531
 541     292      0      17.5    40.0  292  506    0      42.2    44.6  318  532
 542     292      0      18.3    43.9  292  510    0      38.7    36.3  314  532
 543     293      0      47.0     2.9  293  482    0      27.4    49.6  344  533
 544     293      0      45.6    31.8  293  493    0       7.3    22.0  333  533
 545     294      0      35.0     9.1  294  511    0      51.1    25.2  317  534
 546     294      0      50.3    29.4  294  532    0      51.8    28.8  296  534
 547     295      0      44.9    18.2  295  513    0      36.8    38.2  317  535
 548     295      0      56.9    39.4  295  490    0      16.6    57.2  340  535
 549     296      0       1.9    37.7  296  363    0      54.4    30.9  349  416
 550     297      0      12.2     3.5  297  401    0       9.2    18.4  313  417
 551     297      0       5.0    46.8  297  363    0      36.1     3.0  351  417
 552     298      0      23.9    33.0  298  525    0      29.3    21.5  311  538
 553     298      0      53.2    30.9  298  520    0      58.2    14.0  316  538
 554     299      0       5.6    12.6  299  378    0      33.2    42.6  340  419
 555     299      0       9.3     0.9  299  492    0       0.9    47.0  346  539
 556     300      0       2.5    38.4  300  375    0      43.9    22.8  345  420
 557     300      0      39.1    22.1  300  518    0      41.3     1.1  322  540
 558     301      0      30.6     5.6  301  371    0      52.1    50.1  351  421
 559     301      0      16.7    20.3  301  504    0      52.7    20.0  338  541
 560     302      0      19.6    13.6  302  507    0      53.9    16.3  337  542
 561     302      0      45.3    50.9  302  391    0      15.0    56.6  333  422
 562     303      0      33.8    36.7  303  531    0      26.2    28.1  315  543
 563     304      0      22.8    52.1  304  498    0      15.4     7.1  350  544
 564     304      0       6.4     9.7  304  406    0      22.0     1.8  322  424
 565     305      0      39.8    34.8  305  406    0      47.5    17.9  324  425
 566     305      0      25.0    24.4  305  507    0      47.7    53.9  343  545
 567     306      0       5.4    19.9  306  503    0      43.6     1.5  349  546
 568     306      0       7.9    55.7  306  526    0       5.0    36.4  326  546
 569     307      0       3.2    35.4  307  361    0      58.4     0.4  373  427
 570     307      0      56.9    59.0  307  522    0      35.6    47.8  332  547
 571     308      0      53.9    36.7  308  521    0      44.1    11.9  335  548
 572     308      0      12.6    42.3  308  512    0      20.3     8.1  344  548
 573     309      0      10.4     3.9  309  542    0       7.5    10.0  316  549
 574     309      0      32.7     4.4  309  493    0      17.8    57.4  365  549
 575     310      0      37.3    16.7  310  534    0      52.4    18.0  326  550
 576     311      0      43.7    36.0  311  411    0      34.9    53.4  331  431
 577     311      0      35.7     3.2  311  516    0       4.7    17.8  346  551
 578     312      0       5.3     8.7  312  377    0      33.3    55.3  367  432
 579     312      0      16.3     4.9  312  503    0      50.1    39.2  361  552
 580     313      0      12.9    30.5  313  525    0      38.2    41.8  341  553
 581     313      0      21.6    32.5  313  405    0      46.0    19.5  341  433
 582     314      0      49.1    55.9  314  374    0       2.5    19.0  374  434
 583     314      0      23.9    32.6  314  409    0      12.4    54.1  339  434
 584     315      0       5.7    52.4  315  514    0      37.3    26.9  356  555
 585     315      0      56.0     5.6  315  528    0      42.1    27.9  342  555
 586     316      0      14.9    55.6  316  382    0      49.2    14.9  370  436
 587     316      0       5.8    18.4  316  403    0      14.4    50.0  349  436
 588     317      0      33.7    16.3  317  531    0      44.6    39.3  343  557
 589     318      0      30.0    48.1  318  531    0      41.7    24.7  345  558
 590     318      0      42.2     4.1  318  539    0      56.6    15.2  337  558
 591     319      0      10.5    52.9  319  384    0      27.0     1.1  374  439
 592     319      0      46.7    54.7  319  399    0      49.8    15.3  359  439
 593     320      0      49.7    54.6  320  391    0      32.4     9.5  369  440
 594     320      0      23.5    14.7  320  421    0       6.5     6.4  339  440
 595     321      0      24.9    46.9  321  547    0      11.6    46.9  335  561
 596     321      0      13.4    58.5  321  529    0      11.8    27.2  353  561
 597     322      0      23.0    50.6  322  406    0      58.1    54.5  358  442
 598     322      0       6.3    50.4  322  512    0      39.0    13.4  372  562
 599     323      0      27.8    46.9  323  441    0      26.3    47.4  325  443
 600     324      0       3.1    20.5  324  506    0      56.8     1.0  382  564
 601     324      0      22.8    44.7  324  520    0      49.0    10.2  368  564
 602     325      0      48.8    13.0  325  394    0       2.6    32.8  376  445
 603     325      0      39.1    15.6  325  436    0      30.6    14.6  334  445
 604     326      0      49.0    19.0  326  414    0      18.0    15.5  358  446
 605     326      0      13.2    53.7  326  520    0      15.0     8.1  372  566
 606     327      0      24.3    59.9  327  541    0      25.4    34.6  353  567
 607     327      0      57.0     5.5  327  556    0      56.4    15.7  338  567
 608     328      0      45.1    53.4  328  437    0      55.7    56.3  339  448
 609     328      0       4.4    30.1  328  513    0      53.8    53.1  383  568
 610     329      0      47.8    58.2  329  529    0      15.2    36.5  369  569
 611     329      0      21.6    37.6  329  437    0      31.2    32.2  341  449
 612     330      0       1.7    31.1  330  539    0      31.7    25.9  361  570
 613     331      0      26.8    27.3  331  540    0      50.8    46.1  362  571
 614     331      0      27.7    40.6  331  551    0      30.1    21.1  351  571
 615     332      0      13.1    36.3  332  563    0      16.0    44.4  341  572
 616     332      0      10.8    34.7  332  556    0       5.2    49.6  348  572
 617     333      0      13.1    34.1  333  533    0      52.8    33.4  373  573
 618     333      0      11.2     6.0  333  527    0       4.3    51.3  379  573
 619     334      0      20.9    42.1  334  439    0      14.6    29.3  349  454
 620     334      0      51.3    26.6  334  414    0      21.9     0.8  374  454
 621     335      0      59.0    45.4  335  556    0      43.0    36.1  354  575
 622     335      0      32.0    20.9  335  429    0      15.7     1.6  361  455
 623     336      0      27.7    35.7  336  432    0      11.7    53.1  360  456
 624     336      0      36.7    36.1  336  546    0       8.3    29.0  366  576
 625     337      0      31.2    19.7  337  566    0      41.2    17.3  348  577
 626     338      0       0.3    55.6  338  527    0      18.2     7.9  389  578
 627     338      0      57.8     2.5  338  523    0      27.4    47.8  393  578
 628     339      0      21.2    19.5  339  442    0      37.2    17.5  356  459
 629     339      0      51.9    17.7  339  411    0       6.3    30.8  387  459
 630     340      0      26.8    59.6  340  536    0      45.6    20.6  384  580
 631     340      0       7.1    28.6  340  526    0      53.3     0.9  394  580
 632     341      0      15.7    15.0  341  443    0      20.8    31.6  359  461
 633     341      0      46.6    10.7  341  539    0      27.5    47.2  383  581
 634     342      0      31.9    59.0  342  563    0      45.7    47.4  361  582
 635     342      0      36.2     4.8  342  557    0      29.2    28.2  367  582
 636     343      0      50.8    32.1  343  557    0      28.7    45.5  369  583
 637     343      0      19.0    18.7  343  423    0      43.4    49.7  383  463
 638     344      0      29.8     5.2  344  435    0      30.6    34.0  373  464
 639     345      0      34.7     3.8  345  559    0      50.5    24.2  371  585
 640     345      0      47.2    29.2  345  418    0       7.3     6.3  392  465
 641     346      0      55.9     1.1  346  548    0      19.5    11.7  384  586
 642     346      0      28.5    25.6  346  558    0      32.6    52.6  374  586
 643     347      0      45.2    11.2  347  579    0      52.2    15.0  355  587
 644     347      0      47.9    10.6  347  538    0      48.7    59.2  396  587
 645     348      0      39.2    23.0  348  578    0      40.4    32.5  358  588
 646     348      0      51.4     8.9  348  545    0      32.5    46.7  391  588
 647     349      0      25.9     8.4  349  554    0       5.0    35.8  384  589
 648     349      0      39.2     2.3  349  580    0      43.4     9.2  358  589
 649     350      0      58.9    32.1  350  578    0      49.8    38.4  362  590
 650     351      0       7.7    16.6  351  454    0      13.5     1.0  368  471
 651     351      0       5.2    28.9  351  569    0      12.3     8.2  373  591
 652     352      0      49.5    27.6  352  569    0      30.8    15.2  375  592
 653     352      0      37.5    30.6  352  567    0      30.6     7.5  377  592
 654     353      0      31.4    57.9  353  415    0       6.9     5.5  411  473
 655     353      0      53.0    17.0  353  423    0       6.0     1.5  403  473
 656     354      0      57.8     7.0  354  472    0      59.2     7.7  356  474
 657     354      0      27.9    45.4  354  564    0      34.3    16.8  384  594
 658     355      0      39.9    39.4  355  452    0      27.7    58.5  378  475
 659     355      0      26.5    28.3  355  450    0      50.9    26.7  380  475
 660     356      0      32.1     7.3  356  543    0      52.7    55.6  409  596
 661     356      0       3.4    20.4  356  565    0       9.5    50.4  387  596
 662     357      0       3.6    44.0  357  561    0      38.0    53.2  393  597
 663     358      0      17.8     9.2  358  583    0      15.5    23.9  373  598
 664     358      0      32.7     9.2  358  451    0      10.7    23.8  385  478
 665     359      0      31.5    40.6  359  573    0      51.1    56.5  385  599
 666     359      0      57.9    29.9  359  452    0      41.3     9.2  386  479
 667     360      0      43.5    51.4  360  423    0      17.8     0.6  417  480
 668     360      0       9.3    21.0  360  442    0      18.3    57.6  398  480
 669     361      0      53.6    26.6  361  452    0      34.0    47.9  390  481
 670     361      0      39.7    42.1  361  464    0      36.3    25.5  378  481
 671     362      0       2.3    42.8  362  443    0      40.6    41.2  401  482
 672     362      0      25.7     6.9  362  446    0      24.9    42.0  398  482
 673     363      0      13.7    30.0  363  409    0       8.9    17.9  377  423
 674     363      0      19.1    20.6  363  394    0       8.7    -5.6  392  423
 675     364      0       1.1     4.7  364  423    0      48.6    42.2  425  484
 676     365      0      20.0    29.4  365  399    0      12.2     5.4  391  425
 677     365      0      35.0    30.6  365  479    0      32.9    35.4  371  485
 678     366      0      24.0    56.4  366  476    0      14.3    56.7  376  486
 679     366      0      33.6    33.4  366  422    0      33.0    29.8  370  426
 680     367      0       0.8    32.0  367  452    0      32.2    45.3  402  487
 681     367      0      18.6    28.8  367  407    0      17.8     9.2  387  427
 682     368      0      20.2    21.6  368  417    0      27.8    28.2  379  428
 683     368      0       7.8     7.0  368  460    0       8.5    34.3  396  488
 684     369      0      15.8     9.5  369  426    0      53.7    59.1  432  489
 685     369      0      14.3    18.8  369  399    0      11.4   -10.9  399  429
 686     370      0      16.8    38.4  370  466    0      33.4    22.3  394  490
 687     370      0      37.8     1.2  370  442    0       9.4    38.7  418  490
 688     371      0       7.2    42.2  371  427    0      56.8     2.8  435  491
 689     372      0       7.7    23.1  372  472    0       1.7     4.6  392  492
 690     372      0       7.7    28.8  372  479    0      19.7    25.2  385  492
 691     373      0       6.5    27.1  373  440    0      55.8    44.5  426  493
 692     373      0      41.6    39.2  373  447    0      14.5     2.1  419  493
 693     374      0       9.3    34.6  374  451    0      50.6    22.7  417  494
 694     374      0       8.2    56.1  374  445    0       2.8     8.1  423  494
 695     375      0      13.2    47.2  375  418    0      27.1    55.5  392  435
 696     375      0      39.8     2.1  375  451    0      15.2    37.4  419  495
 697     376      0      44.8    36.1  376  461    0      12.2    45.8  411  496
 698     376      0      18.7    26.3  376  416    0      -0.5    26.3  396  436
 699     377      0      41.0    43.9  377  455    0      55.0     4.4  419  497
 700     378      0      58.3     1.1  378  470    0      32.4     9.7  406  498
 701     378      0      46.6    51.5  378  454    0      29.9    11.4  422  498
 702     379      0      40.8    42.1  379  478    0      49.5    23.7  400  499
 703     379      0      22.1    38.6  379  479    0      25.8    57.6  399  499
 704     380      0       6.0    42.7  380  479    0      15.1    24.1  401  500
 705     380      0      49.7    47.9  380  457    0      54.6     5.6  423  500
 706     381      0      18.0    25.9  381  438    0      17.7    23.6  384  441
 707     381      0      55.3    17.7  381  480    0      38.1     6.2  402  501
 708     382      0      48.1    11.3  382  449    0      26.9    58.8  435  502
 709     382      0      23.7    13.9  382  482    0      37.5     0.7  402  502
 710     383      0      37.5     4.8  383  479    0      21.6    21.6  407  503
 711     383      0       7.5    44.3  383  487    0      22.9    42.4  399  503
 712     384      0      39.3     3.1  384  452    0      29.1    53.5  436  504
 713     385      0      21.5    36.3  385  474    0      51.7    41.0  416  505
 714     385      0      22.0    22.6  385  491    0      11.7    14.3  399  505
 715     386      0      13.0     0.9  386  503    0      12.9     3.4  389  506
 716     386      0       8.0    30.0  386  443    0       7.7    27.9  389  446
 717     387      0      16.6    50.1  387  424    0       5.6    30.1  410  447
 718     387      0      18.1     5.9  387  455    0      35.9    54.6  439  507
 719     388      0      51.9    31.6  388  491    0      40.9    19.0  405  508
 720     388      0      43.2    36.1  388  474    0      10.1    32.8  422  508
 721     389      0      19.4    21.1  389  423    0       7.7    -1.7  415  449
 722     389      0      44.6    17.4  389  481    0      48.2    44.9  417  509
 723     390      0      43.2    25.5  390  465    0       8.7    53.3  435  510
 724     390      0      22.2    54.7  390  460    0       4.0     8.2  440  510
 725     391      0      44.1    41.3  391  487    0      53.8    20.4  415  511
 726     392      0      39.2    26.0  392  473    0       3.0    37.6  431  512
 727     392      0      12.9    53.5  392  478    0      19.9    20.7  426  512
 728     393      0      26.6    56.4  393  479    0       3.8    31.3  427  513
 729     393      0      38.3    24.7  393  489    0      28.8    46.5  417  513
 730     394      0      52.0    57.4  394  503    0      42.2    54.0  405  514
 731     394      0      56.0    58.5  394  461    0      23.8    17.6  447  514
 732     395      0      12.0    50.3  395  500    0      26.6    49.4  410  515
 733     395      0      54.6    38.4  395  458    0       4.1    12.7  452  515
 734     396      0      14.8    21.1  396  429    0      -6.9     6.2  423  456
 735     396      0       9.9    30.1  396  469    0      54.6    16.4  443  516
 736     397      0      41.2    35.2  397  480    0       4.6    30.8  434  517
 737     397      0       1.1    17.4  397  447    0       4.4    26.2  407  457
 738     398      0      24.7    46.8  398  502    0      21.2    31.5  414  518
 739     399      0      23.3    35.3  399  493    0      49.1    38.0  425  519
 740     399      0      23.2    21.1  399  490    0       1.6    39.0  428  519
 741     400      0      10.1    45.9  400  506    0      16.3    58.4  414  520
 742     400      0      16.8    16.3  400  432    0       8.9    -9.9  428  460
 743     401      0      10.7    29.5  401  432    0       5.6     1.0  430  461
 744     401      0       4.1    33.4  401  513    0       2.0    40.7  409  521
 745     402      0      32.9    53.2  402  495    0      50.8    34.0  429  522
 746     402      0      12.3    23.6  402  452    0       5.7    17.2  412  462
 747     403      0       1.0    26.0  403  477    0      46.4    28.6  449  523
 748     403      0      13.8    39.6  403  471    0      50.8     3.3  455  523
 749     404      0      12.8    56.7  404  518    0      13.2    51.6  410  524
 750     405      0      12.4    17.2  405  462    0      10.7    14.8  408  465
 751     405      0      55.3    55.8  405  489    0      47.4    21.3  441  525
 752     406      0       8.3    36.7  406  498    0      12.8     9.5  434  526
 753     406      0      15.4    24.5  406  457    0      14.1    16.0  415  466
 754     407      0      59.1    47.5  407  496    0      47.7    19.2  438  527
 755     407      0      46.3    10.0  407  510    0      30.7    14.7  424  527
 756     408      0      50.4    39.5  408  455    0      56.0    50.5  421  468
 757     408      0      39.2    32.1  408  448    0      58.7    28.7  428  468
 758     409      0       7.8    53.3  409  503    0      32.9    59.9  435  529
 759     409      0       7.9     5.1  409  476    0      21.7    55.3  462  529
 760     410      0      32.9    50.5  410  479    0      43.1     1.5  461  530
 761     410      0      19.9    19.2  410  449    0       4.2     5.5  431  470
 762     411      0      15.7    24.1  411  500    0      32.2    49.6  442  531
 763     412      0       8.3    41.7  412  515    0       9.2    25.6  429  532
 764     412      0      15.9     7.4  412  528    0      17.0     3.7  416  532
 765     413      0      17.4    16.6  413  443    0      15.4   -12.7  443  473
 766     413      0      16.8    25.9  413  460    0      16.7    13.2  426  473
 767     414      0      55.6    21.0  414  500    0      22.3    18.1  448  534
 768     414      0      11.3    24.6  414  490    0      39.8    57.3  458  534
 769     415      0      12.5    44.6  415  487    0      58.0    59.1  463  535
 770     415      0      26.3    29.3  415  468    0      20.5    27.5  422  475
 771     416      0      16.7    18.2  416  513    0      33.0     2.4  439  536
 772     416      0       4.0    17.2  416  503    0      31.9     1.2  449  536
 773     417      0      53.0    55.1  417  483    0      28.0     7.3  471  537
 774     417      0       2.6    22.1  417  497    0      31.4    49.6  457  537
 775     418      0      59.5     4.3  418  483    0       9.1    26.0  473  538
 776     419      0      10.7     0.4  419  475    0       8.8     3.4  423  479
 777     419      0       1.8    39.0  419  531    0       8.8    35.9  427  539
 778     420      0      13.2    55.0  420  486    0      59.4    28.1  474  540
 779     420      0       5.8    28.8  420  499    0      39.8    50.9  461  540
 780     421      0       9.7     9.4  421  527    0      22.8    12.7  435  541
 781     421      0      58.2    59.5  421  486    0      57.5     5.3  476  541
 782     422      0      16.1    20.5  422  473    0       9.8    14.8  431  482
 783     422      0      58.3    38.9  422  525    0      42.9    34.5  439  542
 784     423      0      53.6    51.6  423  506    0      51.4    14.8  460  543
 785     423      0      23.0    52.8  423  512    0      52.3    43.7  454  543
 786     424      0      45.0    43.3  424  532    0      33.3    42.0  436  544
 787     424      0       9.4    52.3  424  503    0      29.6    17.5  465  544
 788     425      0      17.6    27.7  425  455    0      17.5    -1.6  455  485
 789     426      0      53.3    52.0  426  510    0      20.1    40.3  462  546
 790     426      0      16.4    29.7  426  476    0      14.8    20.0  436  486
 791     427      0      25.8    23.9  427  506    0      54.2    53.0  468  547
 792     427      0      34.0    48.7  427  532    0      41.2    36.5  442  547
 793     428      0      57.2    31.7  428  526    0      42.9    15.0  450  548
 794     428      0       4.2    52.1  428  490    0      40.5     8.1  486  548
 795     429      0      25.2     6.5  429  469    0      44.9     7.4  449  489
 796     429      0      21.4    38.8  429  537    0      16.4    28.3  441  549
 797     430      0      49.5    59.7  430  511    0      11.5    56.1  469  550
 798     430      0      27.0     9.1  430  539    0      33.6     0.5  441  550
 799     431      0       9.6    45.2  431  509    0      50.7    48.5  473  551
 800     432      0      54.3    54.2  432  508    0      17.3    32.1  476  552
 801     432      0       1.0    52.8  432  491    0      32.7     1.8  493  552
 802     433      0      19.0    22.2  433  483    0      12.2    16.1  443  493
 803     433      0       5.1    56.7  433  508    0      40.5    29.5  478  553
 804     434      0      10.1    22.2  434  464    0       4.2    -6.6  464  494
 805     434      0       8.7    33.0  434  542    0      19.9    36.8  446  554
 806     435      0      32.8    48.1  435  545    0      34.6    38.7  445  555
 807     435      0      39.2    10.5  435  546    0      43.5    18.0  444  555
 808     436      0      43.7    57.4  436  522    0      36.7    25.1  470  556
 809     436      0      52.0    22.8  436  534    0      30.6    26.7  458  556
 810     437      0      42.4    20.0  437  519    0      18.3    49.3  475  557
 811     437      0       5.5    56.9  437  516    0      11.4    16.9  478  557
 812     438      0      15.9    20.6  438  533    0       0.6    39.4  463  558
 813     439      0      41.4     8.8  439  498    0       1.6    54.4  500  559
 814     439      0      36.7    50.8  439  502    0       3.5     4.5  496  559
 815     440      0       0.1    24.8  440  534    0      22.8    37.3  466  560
 816     440      0      50.7    30.4  440  513    0       4.7    37.3  487  560
 817     441      0       0.4    50.5  441  493    0      56.6    12.8  509  561
 818     441      0       7.8    48.4  441  505    0      59.4    26.7  497  561
 819     442      0      14.9    37.0  442  540    0       5.4    17.4  464  562
 820     442      0      48.8    52.4  442  531    0      55.8    22.9  473  562
 821     443      0       9.9     5.6  443  517    0      30.0    46.3  489  563
 822     443      0      24.6    41.6  443  528    0       2.8    14.3  478  563
 823     444      0      39.4     9.8  444  544    0      20.1     9.7  464  564
 824     444      0      20.7    24.3  444  477    0      34.5    46.9  471  504
 825     445      0      22.7    35.0  445  525    0      48.6     5.5  485  565
 826     446      0      41.0    33.3  446  483    0      40.7    55.6  469  506
 827     446      0      34.3    25.0  446  530    0       5.5     3.8  482  566
 828     447      0      12.6    33.5  447  521    0      51.7    56.6  493  567
 829     447      0      59.0    14.9  447  546    0      52.9    34.2  468  567
 830     448      0      24.4    56.3  448  515    0      53.8    12.4  501  568
 831     448      0      47.9    33.2  448  550    0      31.0    27.3  466  568
 832     449      0      59.6     1.9  449  560    0      51.1     1.3  458  569
 833     449      0       2.6    14.3  449  547    0      24.5    15.1  471  569
 834     450      0      28.9     9.8  450  548    0      17.2    28.4  472  570
 835     450      0      16.1    45.7  450  521    0      38.3     2.8  499  570
 836     451      0      15.4    26.6  451  498    0       5.3    19.3  464  511
 837     451      0      30.5    31.3  451  487    0      18.7    11.3  475  511
 838     452      0      26.2    51.3  452  551    0      15.5    34.2  473  572
 839     453      0      56.6    15.4  453  514    0       2.0    35.8  512  573
 840     453      0      54.9    50.2  453  538    0      20.4    50.5  488  573
 841     454      0      14.0    31.7  454  564    0       9.2    39.6  464  574
 842     454      0      18.4    24.3  454  504    0      17.8    15.1  464  514
 843     455      0      22.3    17.2  455  542    0      19.1    49.7  488  575
 844     455      0      19.6    24.5  455  492    0      -1.4    16.6  478  515
 845     456      0      27.1    52.0  456  497    0      10.8    43.3  475  516
 846     456      0      41.1    34.0  456  560    0      56.4    35.8  472  576
 847     457      0      49.6    53.4  457  536    0       9.2    58.2  498  577
 848     457      0      48.4    44.4  457  535    0      30.0     6.9  499  577
 849     458      0      32.6    32.9  458  564    0      27.2    44.9  472  578
 850     459      0      32.4    16.2  459  568    0      23.3    11.1  470  579
 851     459      0      18.6    24.4  459  498    0      14.0     4.7  480  519
 852     460      0       0.4     1.2  460  510    0       9.8     1.7  470  520
 853     460      0      21.1    49.6  460  528    0      59.4    15.5  512  580
 854     461      0      39.0    25.6  461  544    0      10.9     2.9  498  581
 855     461      0      52.5    48.4  461  564    0      50.4    32.3  478  581
 856     462      0       9.8    19.2  462  544    0      40.3    40.6  500  582
 857     462      0      17.4    16.2  462  498    0      16.4    -7.4  486  522
 858     463      0      56.4    19.1  463  533    0       9.4     2.8  513  583
 859     463      0      30.2    32.5  463  499    0      43.7    51.9  487  523
 860     464      0      39.0    57.0  464  574    0      43.0    48.6  474  584
 861     464      0      18.1    28.0  464  498    0      11.4     3.2  490  524
 862     465      0      40.2     8.6  465  548    0      45.7    44.8  502  585
 863     466      0      42.8     8.6  466  555    0      15.6    21.6  497  586
 864     466      0      55.4    57.7  466  535    0      56.8     7.1  517  586
 865     467      0      53.1    14.5  467  544    0      43.1    55.3  510  587
 866     467      0      40.8    13.8  467  568    0      49.5    29.9  486  587
 867     468      0      11.6    32.0  468  572    0      20.1    18.8  484  588
 868     468      0       7.0     0.5  468  580    0       2.4     7.0  476  588
 869     469      0      25.2    28.3  469  566    0      36.3    48.3  492  589
 870     469      0      34.7     8.9  469  560    0       6.2     8.3  498  589
 871     470      0      52.5    21.6  470  565    0      38.8     1.7  495  590
 872     470      0      25.3    26.4  470  506    0      18.5     3.8  494  530
 873     471      0      50.3    41.7  471  555    0      48.5     6.3  507  591
 874     471      0      11.2    31.6  471  543    0      57.7    43.3  519  591
 875     472      0      19.2    16.8  472  536    0      54.5    59.7  528  592
 876     473      0      52.9    27.8  473  556    0      17.2    23.1  510  593
 877     473      0      44.4    22.9  473  568    0      23.1    35.5  498  593
 878     474      0      52.8    54.0  474  558    0      17.7    49.4  510  594
 879     474      0       7.6    42.6  474  541    0      58.1    29.5  527  594
 880     475      0      11.0    26.6  475  528    0       7.5    21.0  482  535
 881     475      0      13.5    25.6  475  520    0      12.9    10.8  490  535
 882     476      0      19.3    22.4  476  530    0      13.8    20.4  482  536
 883     476      0      52.3    50.4  476  582    0      39.1    54.0  490  596
 884     477      0      16.0    22.8  477  530    0      13.2    16.5  484  537
 885     477      0      25.0     3.7  477  575    0      43.3    14.4  499  597
 886     478      0      13.0    10.4  478  552    0      52.4    32.5  524  598
 887     478      0      33.4    33.0  478  568    0      23.1     4.9  508  598
 888     479      0      45.2    59.9  479  577    0      26.0    51.1  501  599
 889     480      0      17.3    25.4  480  526    0       9.5    14.9  494  540
 890     480      0      16.7    15.8  480  513    0      14.2   -10.6  507  540
 891     481      0      17.9    21.1  481  515    0      -1.8     4.3  507  541
 892     481      0      15.3    26.1  481  527    0      14.2    13.0  495  541
 893     482      0       7.8    49.5  482  521    0      18.6    31.8  503  542
 894     482      0      18.8    40.3  482  528    0      14.5    27.1  496  542
 895     483      0      19.1    26.9  483  516    0      16.3     1.0  510  543
 896     483      0      19.2    20.4  483  531    0       9.3    15.2  495  543
 897     484      0      10.7    28.6  484  530    0       6.2    15.6  498  544
 898     484      0      18.1    17.5  484  528    0      11.0     4.0  500  544
 899     485      0      17.8    18.1  485  539    0      17.7    12.2  491  545
 900     486      0      40.0    50.1  486  538    0      32.9    48.9  494  546
 901     486      0       8.8    27.8  486  523    0      -8.0    12.7  509  546
 902     487      0      18.8    26.8  487  535    0      17.1    15.2  499  547
 903     487      0      17.1    27.4  487  540    0      16.3    20.9  494  547
 904     488      0      17.8    22.2  488  538    0      14.2    12.9  498  548
 905     488      0      18.5    23.8  488  544    0      15.3    23.5  492  548
 906     489      0      22.4    37.5  489  514    0      54.9    26.8  524  549
 907     489      0       6.7    27.0  489  529    0     -12.0    22.4  509  549
 908     490      0      19.1    19.4  490  528    0       1.4     6.9  512  550
 909     490      0      17.3    16.1  490  526    0       8.1    -5.5  514  550
 910     491      0      33.7    30.1  491  538    0      33.2    42.9  504  551
 911     491      0       2.1    24.1  491  533    0      17.4    31.9  509  551
 912     492      0      19.3    39.2  492  529    0      40.0    30.1  515  552
 913     493      0      17.8    30.0  493  533    0       2.8    17.0  513  553
 914     493      0      16.2    23.9  493  535    0      14.5     6.4  511  553
 915     494      0      13.8    18.5  494  545    0       5.0    17.7  503  554
 916     494      0      19.5    26.4  494  525    0      16.5    -2.3  523  554
 917     495      0      35.4    35.4  495  530    0      22.7    14.9  520  555
 918     495      0      18.2    28.0  495  530    0      -2.5    14.5  520  555
 919     496      0      15.8    12.2  496  545    0      25.8    12.0  507  556
 920     496      0      19.0    17.0  496  545    0      18.9     6.2  507  556
 921     497      0      13.0    26.6  497  542    0       6.8    13.1  512  557
 922     497      0      32.7    37.8  497  541    0      33.5    52.8  513  557
 923     498      0      23.4    17.9  498  553    0      24.3    22.8  503  558
 924     498      0      19.8    36.7  498  521    0      17.9     0.0  535  558
 925     499      0      34.8    33.3  499  553    0      40.3    31.8  505  559
 926     500      0      34.6    47.4  500  539    0      16.7    37.4  521  560
 927     500      0      10.1    22.0  500  546    0       1.1    11.3  514  560
 928     501      0      19.8    18.3  501  538    0       4.6     2.2  524  561
 929     501      0      16.6    23.1  501  553    0      11.2    18.5  509  561
 930     502      0      18.6    51.6  502  545    0      26.2    37.2  519  562
 931     502      0      44.5    33.8  502  546    0      46.6    18.9  518  562
 932     503      0      11.6    29.9  503  555    0      11.6    22.8  511  563
 933     503      0      12.8    27.2  503  550    0      24.4    31.6  516  563
 934     504      0      35.1    26.6  504  549    0      43.8    14.6  519  564
 935     504      0      19.9    22.3  504  556    0      27.7    20.8  512  564
 936     505      0      18.5    19.5  505  555    0      14.6    10.4  515  565
 937     505      0      19.8    21.3  505  547    0       5.6    10.5  523  565
 938     506      0      19.9    28.5  506  540    0      -5.4    27.3  532  566
 939     507      0      20.4    26.2  507  541    0      35.3     5.3  533  567
 940     507      0      16.4    19.7  507  554    0       4.4    18.7  520  567
 941     508      0      25.4    43.9  508  554    0      22.0    30.4  522  568
 942     508      0      19.2    24.7  508  556    0      17.7    13.3  520  568
 943     509      0      12.4    16.5  509  547    0      10.3    37.7  531  569
 944     509      0      13.8    20.8  509  549    0      -5.5    20.7  529  569
 945     510      0      19.9    20.8  510  554    0      19.7     4.9  526  570
 946     510      0      11.4    42.5  510  562    0       6.0    47.5  518  570
 947     511      0      14.1    22.2  511  557    0      13.5     8.4  525  571
 948     511      0      19.4    26.6  511  558    0       9.2    19.2  524  571
 949     512      0      18.7    21.2  512  555    0      15.4     4.9  529  572
 950     513      0       8.9    21.3  513  543    0       8.7    -7.9  543  573
 951     513      0      12.9    23.1  513  561    0       2.0    19.3  525  573
 952     514      0      13.5    27.8  514  562    0      11.7    16.1  526  574
 953     514      0      11.4    21.6  514  544    0       1.0    -6.0  544  574
 954     515      0      13.5    19.0  515  557    0      10.1     1.7  533  575
 955     515      0      16.2    21.1  515  553    0       3.2     4.5  537  575
 956     516      0      18.1    28.2  516  548    0      12.2     1.1  544  576
 957     516      0      10.3    26.5  516  556    0       7.6     6.9  536  576
 958     517      0      20.0    21.8  517  551    0       4.7     1.3  543  577
 959     517      0      34.7    12.5  517  556    0      38.2    32.5  538  577
 960     518      0      14.5    28.2  518  559    0      12.7     9.8  537  578
 961     518      0      18.0    29.7  518  572    0      16.6    24.4  524  578
 962     519      0       8.1    25.9  519  571    0       7.5    18.4  527  579
 963     520      0      14.2    27.4  520  575    0      10.4    25.5  525  580
 964     520      0      12.1    30.0  520  550    0      12.1     0.8  550  580
 965     521      0      23.7    23.1  521  560    0       5.2    32.9  542  581
 966     521      0      25.6    32.3  521  568    0      13.7    30.3  534  581
 967     522      0      16.9    24.2  522  567    0       8.1    12.6  537  582
 968     522      0      33.2    11.3  522  560    0      26.0    31.2  544  582
 969     523      0      16.2    19.5  523  567    0      12.1     4.1  539  583
 970     523      0      30.1     6.0  523  578    0      26.6     3.1  528  583
 971     524      0      18.8    27.5  524  572    0       8.5    21.4  536  584
 972     524      0      15.3    19.6  524  568    0       3.6     8.8  540  584
 973     525      0      20.0    24.6  525  561    0      19.9     1.6  549  585
 974     525      0      19.8    22.9  525  562    0       6.2     5.0  548  585
 975     526      0       9.5    22.0  526  559    0     -10.9     4.6  553  586
 976     527      0      16.8    29.2  527  560    0      -3.9    12.4  554  587
 977     527      0      45.1    46.4  527  582    0      42.0    43.2  532  587
 978     528      0      11.4    21.7  528  569    0      -4.8    13.6  547  588
 979     528      0      18.7    28.6  528  562    0      17.7     2.7  554  588
 980     529      0      12.9    25.8  529  565    0      11.8     2.8  553  589
 981     529      0      18.6    21.7  529  575    0       5.4    17.4  543  589
 982     530      0      23.2    32.7  530  560    0      16.8     4.0  560  590
 983     530      0       9.2    26.4  530  572    0       7.3     8.6  548  590
 984     531      0      19.6    25.8  531  580    0       8.9    24.4  542  591
 985     531      0      17.3    18.5  531  584    0      16.6    11.9  538  591
 986     532      0      19.9    29.9  532  571    0      16.7     9.6  553  592
 987     532      0      18.2    17.9  532  579    0      17.3     5.9  545  592
 988     533      0      27.3    46.8  533  581    0      20.7    56.8  545  593
 989     534      0      19.8    21.4  534  565    0      -6.8    12.4  563  594
 990     534      0      18.8    16.0  534  570    0      14.4    -6.7  558  594
 991     535      0      18.2    26.4  535  581    0       5.2    23.1  549  595
 992     535      0      11.2    22.7  535  593    0      10.5    21.8  537  595
 993     536      0       7.6    24.9  536  572    0       4.8     1.5  560  596
 994     536      0      20.0    24.6  536  577    0       2.1    20.0  555  596
 995     537      0       9.6    29.2  537  587    0       7.5    19.5  547  597
 996     537      0      14.9    23.1  537  591    0      14.7    18.1  543  597
 997     538      0      19.6    23.2  538  579    0       6.3    10.3  557  598
 998     538      0      18.2    12.0  538  590    0      13.3    17.1  546  598
 999     539      0      16.6    20.4  539  588    0       6.3    16.7  550  599
